{
    "timezone": "Asia/Kolkata",
    "login": "http://api.creditexchange.com:9002/login.html",
    "home": "http://api.creditexchange.com:9002/#/dashboard",
    "base": "",
    "SecurityResetUrls": {
        "borrower-portal": "https://apply3.qbera.com/#/securityReset/{0}",
        "back-office": "https://backoffice.qbera.com:8443/#/securityReset/{0}",
        "bank-portal": "https://bank.qbera.com:7443/#/securityReset/{0}"
    },
    "services": {
        "security": "https://services.qbera.com:9443/service-security-identity-security-identity",
        "eventHub": "http://api.creditexchange.com:5004",
        "configuration": "https://services.qbera.com:9443/service-configuration-configuration",
        "inbox": "http://192.168.1.61:5011",
        "applicationFilters": "https://services.qbera.com:9443/service-application-filters-application-filters",
        "workflow": "https://workflow3.qbera.com",
        "documentService": "https://services.qbera.com:9443/service-application-document-application-document",
        "statusManagement": "https://services.qbera.com:9443/service-status-management-status-management",
        "applicantDetail": "https://services.qbera.com:9443/service-applicant-applicant",
        "applicationDetail": "https://services.qbera.com:9443/service-application-application",
        "appProcessor": "https://services.qbera.com:9443/service-application-processor-application-processor",
        "downloadDocService": "https://services.qbera.com:9443/service-document-manager-document-manager",
        "verificationEngine": "https://services.qbera.com:9443/service-verification-engine-verification-engine",
        "dataAttributes": "https://services.qbera.com:9443/service-data-attributes-data-attributes",
        "emailService": "https://services.qbera.com:9443/service-email-email",
        "scoreCard": "https://services.qbera.com:9443/service-scorecard-scorecard",
        "activityList": "https://services.qbera.com:9443/service-activity-log-activity-log",
        "lookupservice": "https://services.qbera.com:9443/service-lookup-service-lookup-service",
        "backofficeconfiguration": "https://services.qbera.com:9443/service-configuration-configuration",
        "jsonbase": "http://ecs-dev1.aws.qbera.com:5000",
        "assignment": "https://services.qbera.com:9443/service-assignment-assignment",
        "alertEngine": "https://services.qbera.com:9443/service-alert-engine-alert-engine",
        "smsService": "https://services.qbera.com:9443/service-sms-sms",
        "assetService": "https://services.qbera.com:9443/service-asset-manager-asset-manager",
        "viewDNS": "https://services.qbera.com:9443/service-syndication-view-dns-syndication-view-dns",
        "savedFilters": "https://services.qbera.com:9443/service-filter-search-filter-search",
        "companyDB": "https://services.qbera.com:9443/service-company-db-company-db",
        "dataAttributesPost": "application/applicationNumber/perfiosReport",
        "dataAttributesaddnew": "application/applicationNumber/foirDtiCalculation",
        "dataAttributesdeviation": "application/applicationNumber/deviation",
        "dataAttributesmanualcashflow": "application/applicationNumber/manualCashFlowReport"
    }
}