{
    "employerVerification": "EmployerVerification",
    "incomeVerification": "IncomeVerification",
    "socialVerification": "SocialVerification",
    "bankVerification": "BankVerification",
    "creditVerification": "CreditVerification",
    "e-KYC[Aadhar]Verification": "e-KYC[Aadhar]Verification",
    "fraudVerification": "FraudVerification",
    "emailVerification": "EmailVerification",
    "panVerification": "PANVerification",
    "idResidenceVerification": "IDResidenceVerification",
    "mobileVerification": "MobileVerification",
    "locationVerification": "LocationVerification"
}