{
    "CEAprovalExportconfig": {
        "ExportTag": "Ready for FinacleExport",
        "PostExportTag": "Exported to Finacle",
        "ApprovedStatusCode": "200.11",
        "FinacleFileStoragePath": "/finacle/prod",
        "SftpConfiguration": {
            "Host": "34.202.157.160",
            "Port": "22",
            "Username": "hunter",
            "Password": "QbeR@huNt3R"
        },
        "ExportFinacleRule": {
            "Name": "get_finacle_record",
            "Version": "1.0"
        },
        "CsvProjection": {
            "TypeOfCust": "Type OF Cust",
            "TitleId": "TitleID",
            "FirstName": "FirstName",
            "MiddleName": "MiddleName",
            "LastName": "LastName",
            "MotherMaidenName": "MotherMaidenName",
            "DateOfBirth": "DateOfBirth",
            "Gender": "Gender",
            "MaritalStatus": "MaritalStatus",
            "Qualification": "Qualification",
            "EmploymentStatus": "EmploymentStatus",
            "TypeOfCompany": "TypeofCompany",
            "Occupation": "Occupation",
            "SourceOfIncome": "SourceOfIncome",
            "GrossIncome": "GrossIncome",
            "Caste": "Caste",
            "Community": "Community",
            "PanNumber": "Pan Number",
            "DocumentCode1": "Document Code 1 (ID/Address)",
            "UniqueId1": "Unique Id 1",
            "DocumentExpiryDate1": "Document Expiry Date1",
            "DocumentCode2": "Document Code 2 (Addr)",
            "UniqueId2": "Unique Id 2",
            "DocumentExpiryDate2": "Document Expiry Date2",
            "AddressType1": "AddressType1",
            "AddressLine11": "AddressLine11",
            "AddressLine21": "AddressLine21",
            "AddressLine31": "AddressLine31",
            "City1": "City1",
            "State1": "State1",
            "Pincode1": "Pincode1",
            "AddressType2": "AddressType2",
            "AddressLine12": "AddressLine12",
            "AddressLine22": "AddressLine22",
            "AddressLine32": "AddressLine32",
            "City2": "City2",
            "State2": "State2",
            "Pincode2": "Pincode2",
            "PhoneType1": "PhoneType1",
            "PhoneNo1": "PhoneNo1",
            "PhoneType2": "PhoneType2",
            "PhoneNo2": "PhoneNo2",
            "EmailType": "EmailType",
            "EmailId": "EmailId",
            "LoanAmount": "LoanAmount",
            "RateOfInterest": "RateOfInterest",
            "Tenor": "Tenor",
            "EMIAmount": "EMIAmount",
            "AccountOpeningDate": "Account Opening Date",
            "EMIStartDate": "EMI Start Date",
            "LoanSanctionDate": "LoanSanctionDate",
            "SanctionRefNo": "SanctionReferenceNo",
            "DocumentDate": "DocumentDate",
            "RepaymentMethod": "RepaymentMethod",
            "OperativeAccountNo": "Operative Account no",
            "BrokenPeriodInterest": "Broken Period Interest",
            "BrokenPeriodIntDueDate": "Broken Period Interest Due Date",
            "ProcessingFee": "Processingfee",
            "PfServiceTax": "PF Service Tax",
            "PfSbSt": "PF SB ST",
            "PfKkc": "PF KKC",
            "NetDisbursementAmt": "Net Disb Amount",
            "IfscCode": "IFSCCODE",
            "BeneAccNo": "BENEACCNO",
            "BeneName": "BENENAME",
            "BeneAddress1": "BENEADD1"
        }
    }
}