{
    "MobileVerificationProvider": "Two2Factor",
    "MaxAttemptsAllowed": "3",
    "MobileVerificationSettings": {
        "BaseUrl": "http://2factor.in/API/V1",
        "ApiKey": "ef79294b-ef9b-11e7-a328-0200cd936042",
        "OtpEndPoint": "SMS/{phone_number}/AUTOGEN/{template_name}",
        "OtpCheckBalanceEndPoint": "BAL/SMS",
        "VerifyOtpEndPoint": "SMS/VERIFY/{session_id}/{otp_input}",
        "TrSmsEndPoint": "ADDON_SERVICES/SEND/TSMS",
        "TrSmsCheckBalanceEndPoint": "ADDON_SERVICES/BAL/TRANSACTIONAL_SMS",
        "TrSmsDeliveryReportEndPoint": "ADDON_SERVICES/RPT/TSMS/{session_id}",
        "OtpTemplateName": "CEMobileVerification",
        "SenderName": "QBERAA"
    }
}