{
    "dataattributerules": {
        "application": {
            "ApplicationCreated": {
                "EntityId": "{Data.Application.ApplicationNumber}",
                "RuleType": "DataAttributeCriteria",
                "RuleName": "data_attribute_applicationcreated"
            },
            "ApplicationModified": {
                "EntityId": "{Data.Application.ApplicationNumber}",
                "RuleType": "DataAttributeCriteria",
                "RuleName": "data_attribute_applicationcreated"
            },
            "CompanyDbCategoryRequested": {
                "EntityId": "{Data.EntityId}",
                "RuleType": "DataAttributeCriteria",
                "RuleName": "data_attribute_companycategorydatarequested"
            },
            "CrifCreditReportPulled": {
                "EntityId": "{Data.EntityId}",
                "RuleType": "DataAttributeCriteria",
                "RuleName": "data_attribute_creditcreditreportpulled"
            },
            "PanVerificationRequested": {
                "EntityId": "{Data.EntityId}",
                "RuleType": "DataAttributeCriteria",
                "RuleName": "data_attribute_crifpanverificationrequested"
            },
            "GeoRiskPinCodeVerified": {
                "EntityId": "{Data.EntityId}",
                "RuleType": "DataAttributeCriteria",
                "RuleName": "data_attribute_georiskpincodeverified"
            },
            "LenddoSocialScoreRequested": {
                "EntityId": "{Data.EntityId}",
                "RuleType": "DataAttributeCriteria",
                "RuleName": "data_attribute_lendosocialscorerequested"
            },
            "PerfiosXmlReportPulled": {
                "EntityId": "{Data.EntityId}",
                "RuleType": "DataAttributeCriteria",
                "RuleName": "data_attribute_perfiosreportpulled"
            },
            "ZumigoValidatedOnlineTransaction": {
                "EntityId": "{Data.EntityId}",
                "RuleType": "DataAttributeCriteria",
                "RuleName": "data_attribute_zumigovalidationonlinetransaction"
            },
            "cibilreportpulled": {
                "EntityId": "{Data.EntityId}",
                "RuleType": "DataAttributeCriteria",
                "RuleName": "data_attribute_cibilreportpulled"
            },
            "InitialOfferSelected": {
                "EntityId": "{Data.EntityId}",
                "RuleType": "DataAttributeCriteria",
                "RuleName": "data_attribute_InitialOfferSelected"
            },
            "FinalOfferSelected": {
                "EntityId": "{Data.EntityId}",
                "RuleType": "DataAttributeCriteria",
                "RuleName": "data_attribute_FinalOfferAccepted"
            },
            "YodleeCashFlowReportPulled": {
                "EntityId": "{Data.EntityId}",
                "RuleType": "DataAttributeCriteria",
                "RuleName": "data_attribute_yodleereportpulled"
            },
            "DomainSearched": {
                "EntityId": "{Data.EntityId}",
                "RuleName": "data_attribute_DomainSearched",
                "RuleVersion": "1.0"
            }
        }
    }
}