{
    "roles": {
        "Backoffice": {
            "permissions": [
                "{*any}",
                "back-office"
            ],
            "roles": {
                "CEO": {
                    "permissions": [
                        "{*any}",
                        "back-office"
                    ],
                    "roles": {
                        "Call-Centre Manager": {
                            "permissions": [
                                "{*any}",
                                "back-office"
                            ],
                            "roles": {
                                "Outsourced call centre": {
                                    "permissions": [
                                        "{*any}",
                                        "back-office"
                                    ]
                                }
                            }
                        },
                        "Credit Operations Manager": {
                            "permissions": [
                                "{*any}",
                                "back-office"
                            ],
                            "roles": {
                                "Credit Operations": {
                                    "permissions": [
                                        "{*any}",
                                        "back-office"
                                    ]
                                }
                            }
                        },
                        "Credit Sales Manager": {
                            "permissions": [
                                "{*any}",
                                "back-office"
                            ],
                            "roles": {
                                "Credit Sales": {
                                    "permissions": [
                                        "{*any}",
                                        "back-office"
                                    ]
                                }
                            }
                        },
                        "Credit Manager": {
                            "permissions": [
                                "{*any}",
                                "back-office"
                            ],
                            "roles": {
                                "Credit": {
                                    "permissions": [
                                        "{*any}",
                                        "back-office"
                                    ]
                                }
                            }
                        },
                        "Verification Manager": {
                            "permissions": [
                                "{*any}",
                                "back-office"
                            ],
                            "roles": {
                                "Verification": {
                                    "permissions": [
                                        "{*any}",
                                        "back-office"
                                    ]
                                }
                            }
                        },
                        "Fulfilment Manager": {
                            "permissions": [
                                "{*any}",
                                "back-office"
                            ],
                            "roles": {
                                "Fulfilment": {
                                    "permissions": [
                                        "{*any}",
                                        "back-office"
                                    ]
                                }
                            }
                        },
                        "QA Manager": {
                            "permissions": [
                                "{*any}",
                                "back-office"
                            ],
                            "roles": {
                                "Quality Assurance": {
                                    "permissions": [
                                        "{*any}",
                                        "back-office"
                                    ]
                                }
                            }
                        },
                        "RBL Relationship Manager": {
                            "permissions": [
                                "{*any}",
                                "back-office"
                            ],
                            "roles": {
                                "Bank Tracking and Query Resolution": {
                                    "permissions": [
                                        "{*any}",
                                        "back-office"
                                    ]
                                }
                            }
                        },
                        "Customer Support Manager": {
                            "permissions": [
                                "{*any}",
                                "back-office"
                            ],
                            "roles": {
                                "Customer support": {
                                    "permissions": [
                                        "{*any}",
                                        "back-office"
                                    ]
                                }
                            }
                        },
                        "Errors Manager": {
                            "permissions": [
                                "{*any}",
                                "back-office"
                            ],
                            "roles": {
                                "Error Handling": {
                                    "permissions": [
                                        "{*any}",
                                        "back-office"
                                    ]
                                }
                            }
                        },
                        "Export Manager": {
                            "permissions": [
                                "{*any}",
                                "back-office"
                            ],
                            "roles": {
                                "PFOG Export": {
                                    "permissions": [
                                        "{*any}",
                                        "back-office"
                                    ]
                                }
                            }
                        }
                    }
                },
                "IT Manager": {
                    "permissions": [
                        "{*any}",
                        "back-office"
                    ],
                    "roles": {
                        "IT Executive": {
                            "permissions": [
                                "{*any}",
                                "back-office"
                            ]
                        }
                    }
                }
            }
        },
        "BankPortal": {
            "permissions": [
                "{*any}",
                "bank-portal"
            ],
            "roles": {
                "Bank CEO": {
                    "permissions": [
                        "{*any}",
                        "back-office"
                    ],
                    "roles": {
                        "Bank Credit Manager": {
                            "permissions": [
                                "{*any}",
                                "bank-portal"
                            ],
                            "roles": {
                                "Bank Credit": {
                                    "permissions": [
                                        "{*any}",
                                        "bank-portal"
                                    ]
                                }
                            }
                        },
                        "Bank FCU Manager": {
                            "permissions": [
                                "{*any}",
                                "bank-portal"
                            ],
                            "roles": {
                                "Bank FCU": {
                                    "permissions": [
                                        "{*any}",
                                        "bank-portal"
                                    ]
                                }
                            }
                        },
                        "Bank Operations Manager": {
                            "permissions": [
                                "{*any}",
                                "bank-portal"
                            ],
                            "roles": {
                                "Bank Operations": {
                                    "permissions": [
                                        "{*any}",
                                        "bank-portal"
                                    ]
                                }
                            }
                        },
                        "Bank QA Manager": {
                            "permissions": [
                                "{*any}",
                                "bank-portal"
                            ],
                            "roles": {
                                "Bank QA": {
                                    "permissions": [
                                        "{*any}",
                                        "bank-portal"
                                    ]
                                }
                            }
                        }
                    }
                }
            }
        },
        "BorrowerPortal": {
            "permissions": [
                "{*any}",
                "borrower-portal"
            ],
            "roles": {
                "Borrower": {
                    "permissions": [
                        "{*any}",
                        "borrower-portal"
                    ]
                }
            }
        },
        "Api": {
            "permissions": [
                "{*any}",
                "api"
            ],
            "roles": {
                "SalesForceApi": {
                    "permissions": [
                        "{*any}",
                        "salesforce",
                        "api"
                    ]
                }
            }
        }
    },
    "sessionTimeout": "60",
    "tokenTimeout": "60",
    "resetPasswordTemplate": "reset-password",
    "resetPasswordTemplateVersion": "1.0",
    "PhonePrefix": "+91",
    "OtpExpirationMinutes": 20,
    "Otpsmstemplatename": "SendOTPSms"
}