{
    "Events": [
        {
            "EventName": "CreditReportInquirySent"
        },
        {
            "EventName": "cibilreportpulled"
        },
        {
            "EventName": "EmailVerificationRequested"
        },
        {
            "EventName": "DomainSearchAdded"
        },
        {
            "EventName": "EmailFinderAdded"
        },
        {
            "EventName": "EmailVerificationAdded"
        },
        {
            "EventName": "EmailCountAdded"
        },
        {
            "EventName": "ClientVerificationRequested"
        },
        {
            "EventName": "ClientScoreRequested"
        },
        {
            "EventName": "TransactionStarted"
        },
        {
            "EventName": "TransactionCompleted"
        },
        {
            "EventName": "XmlReportPulled"
        },
        {
            "EventName": "PdfReportPulled"
        },
        {
            "EventName": "StatementUploaded"
        },
        {
            "EventName": "FinancialDetailRequested"
        },
        {
            "EventName": "TransactionStatusPulled"
        },
        {
            "EventName": "TransactionStatusPulled"
        },
        {
            "EventName": "DomainSearched"
        },
        {
            "EventName": "AadhaarValidationRequested"
        },
        {
            "EventName": "AadhaarOtpSent"
        },
        {
            "EventName": "AadhaarVerificationRequested"
        },
        {
            "EventName": "ZumigoDeviceAdded"
        },
        {
            "EventName": "DeviceAdded"
        },
        {
            "EventName": "DeviceDeleted"
        },
        {
            "EventName": "DeviceStatusRequested"
        },
        {
            "EventName": "DeviceLocationRequested"
        },
        {
            "EventName": "ValidatedOnlineTransaction"
        },
        {
            "EventName": "cibilreportpulled"
        },
        {
            "EventName": "CrifCreditReportInquirySent"
        },
        {
            "EventName": "CrifCreditReportPulled"
        },
        {
            "EventName": "CreditReportPullFail"
        },
        {
            "EventName": "PanVerificationRequested"
        },
        {
            "EventName": "LenddoClientVerificationRequested"
        },
        {
            "EventName": "LenddoSocialScoreRequested"
        },
        {
            "EventName": "PerfiosXmlReportFailed"
        },
        {
            "EventName": "PerfiosPdfReportPulled"
        },
        {
            "EventName": "PerfiosTransactionStatusPulled"
        },
        {
            "EventName": "PerfiosStatementUploaded"
        },
        {
            "EventName": "PerfiosSupportedInstitutionListPulled"
        },
        {
            "EventName": "PerfiosTransactionReviewRequested"
        },
        {
            "EventName": "PerfiosBankStatementDataDeleted"
        },
        {
            "EventName": "ZumigoDeviceDeleted"
        },
        {
            "EventName": "ZumigoDeviceStatusRequested"
        },
        {
            "EventName": "ZumigoDeviceLocationRequested"
        },
        {
            "EventName": "ZumigoValidatedOnlineTransaction"
        },
        {
            "EventName": "PerfiosXmlReportPulled"
        },
        {
            "EventName": "VerifyEmailRequested"
        },
        {
            "EventName": "VerifyEmailRequestedFail"
        }
    ]
}