{
    "isActive": "True",
    "email": "cetenantX@creditexchange.com",
    "name": "credit-exchange",
    "timezone": "Asia/Calcutta",
    "phone": "anything",
    "paymentTimeLimit": "19",
    "website": "www.creditexchange.com"
}