 {
 "Company-Acco": "Company Provided Accommodation",
  "OwnedSelf": "Self-Owned",
  "PG-Hostel": "PG or Hostel",
  "Rented-Family": "Rented With Family",
  "Rented-Friends": "Rented With Friends",
  "Owned-Family":"Owned By Family",
  "Rented-Alone":"Rented Bachelor Staying Alone"
 }