{
    "storageEngine": "FileSystem",
    "storageSettings": {
        "DataStoreName": "MyData.txt",
        "RootFolderPath": "/assets",
        "PublicBaseUrl": "http://{{external_ip}}:8080/"
    }
}