{
  "escalationmessagetemplate": {
    "name": "EscalationMessageTemplate",
    "version": "v1.0"
  },
  "escalationcompletemessagetemplate": {
    "name": "EscalationCompleteMessageTemplate",
    "version": "v1.0"
  }
}