{
    "ExpiryExtensionEvents": [
        {
            "EventName": "ApplicationStatusChanged",
            "ApplicationNumber": "{Data.EntityId}",
            "StatusPath": "{Data.NewStatus}",
            "ExpiryConfig": [
                {
                    "StatusCode": "200.02",
                    "ExtendByDays": "30",
                    "ShouldExtendOnExpiryDate": false
                },
                {
                    "StatusCode": "200.03",
                    "ExtendByDays": "7",
                    "ShouldExtendOnExpiryDate": false
                },
                {
                    "StatusCode": "200.04",
                    "ExtendByDays": "30",
                    "ShouldExtendOnExpiryDate": false
                },
                {
                    "StatusCode": "200.05",
                    "ExtendByDays": "30",
                    "ShouldExtendOnExpiryDate": false
                },
                {
                    "StatusCode": "200.06",
                    "ExtendByDays": "30",
                    "ShouldExtendOnExpiryDate": false
                },
                {
                    "StatusCode": "200.07",
                    "ExtendByDays": "30",
                    "ShouldExtendOnExpiryDate": false
                },
                {
                    "StatusCode": "200.08",
                    "ExtendByDays": "30",
                    "ShouldExtendOnExpiryDate": false
                },
                {
                    "StatusCode": "200.09",
                    "ExtendByDays": "30",
                    "ShouldExtendOnExpiryDate": false
                },
                {
                    "StatusCode": "200.10",
                    "ExtendByDays": "30",
                    "ShouldExtendOnExpiryDate": false
                },
                {
                    "StatusCode": "200.11",
                    "ExtendByDays": "30",
                    "ShouldExtendOnExpiryDate": false
                }
            ]
        }
    ]
}
