{
    "application": [
        {
            "db": "application-filters",
            "collection": "application-filters",
            "type": "filter"
        },
        {
            "db": "application-filters",
            "collection": "application-filters-tags",
            "type": "tag"
        }
    ],
    "drawdown": [
        {
            "db": "drawdown-filters",
            "collection": "drawdown-filters",
            "type": "filter"
        },
        {
            "db": "drawdown-filters",
            "collection": "drawdown-filters-tags",
            "type": "tag"
        }
    ],
    "partner": [
        {
            "db": "partner-filters",
            "collection": "partner-filters",
            "type": "filter"
        }
    ],
    "poll": [
        {
            "db": "voting",
            "collection": "poll-filters",
            "type": "filter"
        }
    ],
    "loan": [
        {
            "db": "loan-filters",
            "collection": "loan-filters",
            "type": "filter"
        },
        {
            "db": "loan-filters",
            "collection": "loan-filters-tags",
            "type": "tag"
        },
        {
            "db": "loan-filters",
            "collection": "loan-filters",
            "fields": [
                "LoanNumber"
            ],
            "type": "none"
        },
        {
            "db": "tag-filters",
            "collection": "loan-tags",
            "fields": [
                "EntityId",
                "Tags.0.TagName"
            ],
            "type": "none"
        },
        {
            "db": "loan-management",
            "collection": "loan-onboarding",
            "fields": [
                "LoanNumber"
            ],
            "type": "none"
        },
        {
            "db": "loan-management",
            "collection": "loan-schedule",
            "fields": [
                "LoanNumber"
            ],
            "type": "none"
        }
    ]
}