{
    "PendingDocumentApplications": {
		"PendingDocNotificationThreshold": "1",
        "PendingDocumentTagName": "Pending Documents",
		"ExcludedStatuses": [
			"200.14",
			"200.15",
			"200.16"		
		],
		"IncludedDocuments": [			
			"BankManual"	
		],
		"MaxAttempts" : "3"
    }
}