{
    "FileDownloadConfig": [
        {
            "SftpConfiguration": {
                "Host": "34.202.157.160",
                "Port": "22",
                "Username": "cibil",
                "Password": "C!b!l@123"
            },
            "SftpLocationPath": "/cibil/CreditExchange_TUReports/Generic_CIR_Report/",
            "PatternToMatch": "[A-Z]{5}\\d{4}[A-Z]{1}",
            "PatternPropertyName": "ApplicantPanNumber",
            "DocumentCategoryName": "cibilcreditreport",
            "Tags": []
        },
        {
            "SftpConfiguration": {
                "Host": "34.202.157.160",
                "Port": "22",
                "Username": "cibil",
                "Password": "C!b!l@123"
            },
            "SftpLocationPath": "/cibil/CreditExchange_TUReports/Generic_Verification_Report/",
            "PatternToMatch": "[A-Z]{5}\\d{4}[A-Z]{1}",
            "PatternPropertyName": "ApplicantPanNumber",
            "DocumentCategoryName": "cibileverify",
            "Tags": []
        }
    ]
}