{
  "events": [
    {
      "Name": "ManualFactVerificationInitiated",
      "ApplicationNumber": "{Data.EntityId}",
      "ApplyTags": [
        "Pending Documents"
      ]
    },
    {
      "Name": "ApplicationCreated",
      "ApplicationNumber": "{Data.Application.ApplicationNumber}",
      "ApplyTags": [
        "Application Created"
      ]
    },
    {
      "Name": "FactVerificationCompleted",
      "ApplicationNumber": "{Data.Fact.EntityId}",
      "Rules": [
        {
          "Name": "taggingRuleForFactVerified",
          "Version": "1.0"
        }
      ]
    },
    {
      "Name": "InitialOfferSelected",
      "ApplicationNumber": "{Data.EntityId}",
      "Rules": [
        {
          "Name": "taggingRuleForInitialOfferAccepted",
          "Version": "1.0"
        }
      ]
    },
    {
      "Name": "FinalOfferSelected",
      "ApplicationNumber": "{Data.EntityId}",
      "Rules": [
        {
          "Name": "taggingRuleForFinalOfferAccepted",
          "Version": "1.0"
        }
      ]
    },
    {
      "Name": "VerificationDocumentReceived",
      "ApplicationNumber": "{Data.EntityId}",
      "Rules": [
        {
          "Name": "taggingRuleForPendingDocuments",
          "Version": "1.0"
        }
      ]
    },
    {
      "Name": "ApplicationStatusChanged",
      "ApplicationNumber": "{Data.EntityId}",
      "Rules": [
        {
          "Name": "taggingRuleForExportsOnStatus",
          "Version": "1.0"
        }
      ]
    },
    {
      "Name": "ApplicationRejected",
      "ApplicationNumber": "{Data.EntityId}",
      "Rules": [
        {
          "Name": "taggingRuleForApplicationRejection",
          "Version": "1.0"
        }
      ]
    },
    {
      "Name": "ApplicationActivityLogged",
      "ApplicationNumber": "{Data.ApplicationNumber}",
      "Rules": [
        {
          "Name": "taggingRuleForFollowupActivity",
          "Version": "1.0"
        }
      ]
    },
    {
      "Name": "PerfiosTransactionCompleted",
      "ApplicationNumber": "{Data.EntityId}",
      "RemoveTags": [
        "Bank Pending"
      ]
    },
    {
      "Name": "ApplicationManualCashFlowReportDataAttributeSet",
      "ApplicationNumber": "{Data.Attribute.EntityId}",
      "RemoveTags": [
        "Bank Pending"
      ]
    },
    {
      "Name": "PerfiosXmlReportFailed",
      "ApplicationNumber": "{Data.EntityId}",
      "ApplyTags": [
        "Bank Pending"
      ]
    },
    {
      "Name": "LenddoSocialScoreRequested",
      "ApplicationNumber": "{Data.EntityId}",
      "RemoveTags": [
        "Social Pending"
      ]
    },
    {
      "Name": "UpdateScheduleFulfillment",
      "ApplicationNumber": "{Data.Application.ApplicationNumber}",
      "Rules": [
        {
          "Name": "taggingRuleForPendingScheduling",
          "Version": "1.0"
        }
      ]
    },
    {
      "Name": "CompanyDbCategoryRequested",
      "ApplicationNumber": "{Data.EntityId}",
      "Rules": [
        {
          "Name": "taggingRuleForNotCategorized",
          "Version": "1.0"
        }
      ]
    },
    {
      "Name": "ApplicationBankPending",
      "ApplicationNumber": "{Data.EntityId}",
      "ApplyTags": [
        "Bank Pending"
      ]
    },
    {
      "Name": "ApplicationFCUSampled",
      "ApplicationNumber": "{Data.EntityId}",
      "ApplyTags": [
        "FCU Sampled"
      ]
    },
    {
      "Name": "ApplicationSocialPending",
      "ApplicationNumber": "{Data.EntityId}",
      "ApplyTags": [
        "Social Pending"
      ]
    },
    {
      "Name": "ApplicationRemoveReadyforBankQA",
      "ApplicationNumber": "{Data.EntityId}",
      "RemoveTags": [
        "Ready for BankQA"
      ]
    }
  ]
}