 {
    "EmailPersonalizationApiKey": "6ea57e526bbe35842bb9757e0e09efc6",
    "EmailPersonalizationApiBaseUrl": "http://{{internal_ip}}:5199/towerdata",
    "VerificationApiKey": "XY9J2dg6E7",
    "VerificationApiBaseUrl": "http://{{internal_ip}}:5199/towerdata"
  }