{
    "entities": {
        "Application": [
            {
                "EventName": "ApplicationStatusChanged",
                "EntityId": "{Data.EntityId}",
                "Title": "Application Status Changed",
                "Description": "{{#if OldStatus}}Application status changed from {Data.OldStatusName} to {Data.NewStatusName} {{else}} Application status set to {Data.NewStatusName} {{/if}} {{#if Reason }}with the following reason:{Data.Reason} {{/if}}",
                "Tags": [
                    "Application",
                    "Status"
                ]
            },
            {
                "EventName": "FactVerificationCompleted",
                "EntityId": "{Data.Fact.EntityId}",
                "Title": "Fact Verified",
                "Description": "Fact {Data.Fact.FactName} done by {Data.Fact.MethodName} with type {Data.Fact.RequestType} and result was {Data.Fact.VerificationStatus}",
                "Tags": [
                    "{Data.Fact.FactName} {Data.Fact.VerificationStatus}"
                ]
            },
            {
                "EventName": "ApplicationActivityLogged",
                "EntityId": "{Data.ApplicationNumber}",
                "Title": "{Data.Title}",
                "Description": "{Data.Description}",
                "Tags": [
                    "Activity Logged"
                ]
            },
            {
                "EventName": "InitialofferInitiated",
                "EntityId": "{Data.ApplicationNumber}",
                "Title": "Initial Offer Initiated",
                "Description": "Initial Offer Initiated",
                "Tags": [
                    "InitialofferInitiated"
                ]
            },
            {
                "EventName": "FinalofferInitiated",
                "EntityId": "{Data.ApplicationNumber}",
                "Title": "Final Offer Initiated",
                "Description": "Final Offer Initiated",
                "Tags": [
                    "FinalofferInitiated"
                ]
            },
            {
                "EventName": "InitialofferCompleted",
                "EntityId": "{Data.InitialOffer.EntityId}",
                "Title": "Initial Offer Completed",
                "Description": "Initial Offer Completed",
                "Tags": [
                    "InitialofferCompleted"
                ]
            },
            {
                "EventName": "InitialofferFailed",
                "EntityId": "{Data.InitialOffer.EntityId}",
                "Title": "Initial Offer Failed",
                "Description": "Initial Offer Failed",
                "Tags": [
                    "InitialofferFailed"
                ]
            },
            {
                "EventName": "FinalofferCompleted",
                "EntityId": "{Data.FinalOffer.EntityId}",
                "Title": "Final Offer Completed",
                "Description": "Final Offer Completed",
                "Tags": [
                    "FinalofferCompleted"
                ]
            },
            {
                "EventName": "FinalofferFailed",
                "EntityId": "{Data.FinalOffer.EntityId}",
                "Title": "Final Offer Failed",
                "Description": "Final Offer Failed",
                "Tags": [
                    "FinalofferFailed"
                ]
            },
            {
                "EventName": "ManualReviewNeeded",
                "EntityId": "{Data.ApplicationNumber}",
                "Title": "Manual Review Needed",
                "Description": "Manual Review Needed",
                "Tags": [
                    "ManualReviewNeeded"
                ]
            },
            {
                "EventName": "InitialOfferSelected",
                "EntityId": "{Data.EntityId}",
                "Title": "Initial Offer Accepted",
                "Description": "Initial Offer Accepted",
                "Tags": [
                    "InitialOfferSelected"
                ]
            },
            {
                "EventName": "FinalOfferSelected",
                "EntityId": "{Data.EntityId}",
                "Title": "Final Offer Presented",
                "Description": "Final Offer Presented for Selection",
                "Tags": [
                    "FinalOfferSelected"
                ]
            },
            {
                "EventName": "EmailSent",
                "EntityId": "{Data.EntityId}",
                "Title": "{Data.Subject}",
                "Description": "Email was sent to {Data.Recipient} at {Data.Email} with following details : $$ {Data.Body} $$"
            },
            {
                "EventName": "CrifCreditReportPulled",
                "EntityId": "{Data.EntityId}",
                "Title": "Syndication Called",
                "Description": "Syndication {Data.SyndicationName} called",
                "Tags": [
                    "syndication"
                ]
            },
            {
                "EventName": "PanVerificationRequested",
                "EntityId": "{Data.EntityId}",
                "Title": "Syndication Called",
                "Description": "Syndication {Data.SyndicationName} called",
                "Tags": [
                    "syndication"
                ]
            },
            {
                "EventName": "GeoRiskPinCodeVerified",
                "EntityId": "{Data.EntityId}",
                "Title": "Syndication Called",
                "Description": "Syndication {Data.SyndicationName} called",
                "Tags": [
                    "syndication"
                ]
            },
            {
                "EventName": "LenddoSocialScoreRequested",
                "EntityId": "{Data.EntityId}",
                "Title": "Syndication Called",
                "Description": "Syndication {Data.SyndicationName} called",
                "Tags": [
                    "syndication"
                ]
            },
            {
                "EventName": "PerfiosXmlReportPulled",
                "EntityId": "{Data.EntityId}",
                "Title": "Syndication Called",
                "Description": "Syndication {Data.SyndicationName} called",
                "Tags": [
                    "syndication"
                ]
            },
            {
                "EventName": "ZumigoValidatedOnlineTransaction",
                "EntityId": "{Data.EntityId}",
                "Title": "Syndication Called",
                "Description": "Syndication {Data.SyndicationName} called",
                "Tags": [
                    "syndication"
                ]
            },
            {
                "EventName": "cibilreportpulled",
                "EntityId": "{Data.EntityId}",
                "Title": "Syndication Called",
                "Description": "Syndication {Data.SyndicationName} called",
                "Tags": [
                    "syndication"
                ]
            },
            {
                "EventName": "VerificationDocumentReceived",
                "EntityId": "{Data.EntityId}",
                "Title": "Document Uploaded",
                "Description": "{Data.DocumentName} uploaded by - {Data.VerifiedBy}",
                "Tags": [
                    "document"
                ]
            },
            {
                "EventName": "UserLoggedIn",
                "EntityId": "{Data.UserId}",
                "Title": "Logged In",
                "Description": "User is Logged In - {Data.Username}",
                "Tags": [
                    "useractivity"
                ]
            },
            {
                "EventName": "UserLoggedOut",
                "EntityId": "{Data.UserId}",
                "Title": "Logged Out",
                "Description": "User is Logged Out - {Data.Username}",
                "Tags": [
                    "useractivity"
                ]
            },
            {
                "EventName": "UserPasswordChanged",
                "EntityId": "{Data.UserId}",
                "Title": "Password Changed",
                "Description": "User has changed password - {Data.Username}",
                "Tags": [
                    "useractivity"
                ]
            },
            {
                "EventName": "UserPasswordResetRequested",
                "EntityId": "{Data.UserId}",
                "Title": "Password Reset",
                "Description": "User has requested to reset password - {Data.Username}",
                "Tags": [
                    "useractivity"
                ]
            },
            {
                "EventName": "ApplicationAssignmentClaimed",
                "EntityId": "{Data.Assignment.EntityId}",
                "Title": "Assignment",
                "Description": "Application is claimed",
                "Tags": [
                    "userassignment"
                ]
            },
            {
                "EventName": "ApplicationAssignmentAssigned",
                "EntityId": "{Data.Assignment.EntityId}",
                "Title": "Assignment",
                "Description": "Application is assigned",
                "Tags": [
                    "userassignment"
                ]
            },
            {
                "EventName": "ApplicationAssignmentUnassigned",
                "EntityId": "{Data.Assignment.EntityId}",
                "Title": "Assignment",
                "Description": "Application is unassigned",
                "Tags": [
                    "userassignment"
                ]
            },
            {
                "EventName": "ApplicationAssignmentReleased",
                "EntityId": "{Data.Assignment.EntityId}",
                "Title": "Assignment",
                "Description": "Application is Released",
                "Tags": [
                    "userassignment"
                ]
            },
            {
                "EventName": "SmsSentEvent",
                "EntityId": "{Data.EntityId}",
                "Title": "{Data.Request.SentTo}",
                "Description": "SMS was sent to {Data.Request.SentTo} with following details : $$ {Data.Request.Message} $$"
            }
        ]
    }
}