{
    "entities": {
        "application": [
            {
                "name": "Cibil Failure",
                "entityId": "{Data.EntityId}",
                "description": "Cibil Report Failure for {Data.EntityId}",
                "category": [
                    "System Failure"
                ],
                "rule": {
                    "name": "alert_dummy_rule",
                    "version": "1.0"
                },
                "tags": [
                    "CibilReportPull"
                ],
                "events": [
                    "CibilReportPullFail"
                ]
            },
            {
                "name": "Zumigo Failure",
                "entityId": "{Data.EntityId}",
                "description": "Zumigo Failure for {Data.EntityId}",
                "category": [
                    "System Failure"
                ],
                "rule": {
                    "name": "alert_dummy_rule",
                    "version": "1.0"
                },
                "tags": [
                    "ZumigoValidatedOnlineTransaction"
                ],
                "events": [
                    "ZumigoValidatedOnlineTransactionFail"
                ]
            },
            {
                "name": "Lenddo Failure",
                "entityId": "{Data.EntityId}",
                "description": "Lenddo Failure for {Data.EntityId}",
                "category": [
                    "System Failure"
                ],
                "rule": {
                    "name": "alert_dummy_rule",
                    "version": "1.0"
                },
                "tags": [
                    "LenddoSocialScore"
                ],
                "events": [
                    "LenddoSocialScoreFail"
                ]
            },
            {
                "name": "Probe Failure",
                "entityId": "{Data.EntityId}",
                "description": "Probe Failure for {Data.EntityId}",
                "category": [
                    "System Failure"
                ],
                "rule": {
                    "name": "alert_dummy_rule",
                    "version": "1.0"
                },
                "tags": [
                    "FinancialDetailRequested"
                ],
                "events": [
                    "FinancialDetailRequestedFail"
                ]
            },
            {
                "name": "Perfios Xml Report Pulled Failure",
                "entityId": "{Data.EntityId}",
                "description": "Perfios Failure for {Data.EntityId}",
                "category": [
                    "System Failure"
                ],
                "rule": {
                    "name": "alert_dummy_rule",
                    "version": "1.0"
                },
                "tags": [
                    "PerfiosReportPulled"
                ],
                "events": [
                    "PerfiosXmlReportFailed"
                ]
            }
        ]
    }
}