{
    "lead": {
        "amount": {
            "set": {
                "$accepts": {
                    "amount": "string(10)"
                },
                "$returns": {
                    "amount": "string(10)",
                    "hint": "string(100)"
                },
                "save-to-store": "$set(value.amount)",
                "return": "$return('ok', $setStatus({ 'amount': value }))"
            }
        },
        "reason": {
            "set": {
                "$accepts": {
                    "reason": "string(10)"
                },
                "$returns": {
                    "reason": "string(10)",
                    "hint": "string(100)"
                },
                "save-to-store": "$set(value.reason)",
                "return": "$return('ok', $setStatus({ 'reason': value }))"
            }
        },
        "person": {
            "set": {
                "$accepts": {
                    "title": "mr",
                    "firstName": "Amit",
                    "middleName": "Y",
                    "lastName": "Dave",
                    "email": "amit.d@sigmainfo.net"
                },
                "save-to-store": "$set(value)",
                "get-hunter-score": {
                    "activity": "restful-invoke",
                    "endpoint": "$join($configuration('endpoints', 'hunter'), value.email)",
                    "type": "get"
                },
                "save-hunter-score": "$set('hunter', value)",
                "get": "$get()",
                "return": "$return('ok', $setStatus('person', value))"
            },
            "set-number": {
                "$accepts": {
                    "mobile": "string(10)"
                },
                "$returns": {
                    "mobile": "string(10)",
                    "hint": "string(100)"
                },
                "save-to-store": "$set('mobile', value.mobile)",
                "set-status": "$setStatus('person', 'mobile', { 'number': value, 'verified': false })",
                "return": "$return('ok', { 'mobile': value.number })"
            },
            "send-otp": {
                "$accepts": "void",
                "$returns": {
                    "ref": "string(50)",
                    "hint": "string(100)"
                },
                "$prerequisites": {
                    "must-have-mobile-number": {
                        "check": "$isSet('mobile')",
                        "pending": [
                            "set-number"
                        ]
                    }
                },
                "get-stupid-number": "$get('mobile')",
                "invoke-otp-service": {
                    "activity": "restful-invoke",
                    "endpoint": "$join($configuration('endpoints', 'otp'),'/OtpTemplate/1.0/Text')",
                    "type": "post",
                    "payload": "{'Phone':  $join('+91', value.number) }"
                },
                "save-the-otp-ref": "$set('mobile-otp-ref', value.details)",
                "return": "$return('ok', { 'hint': 'verify-otp' })"
            },
            "verify-otp": {
                "$accepts": {
                    "otp": "string(50)"
                },
                "$returns": {
                    "status": "string('verified'|'verification-failed')"
                },
                "$prerequisites": {
                    "must-have-otp-ref-no": {
                        "check": "$isSet('mobile-otp-ref')",
                        "pending": [
                            "send-otp"
                        ]
                    }
                },
                "invoke-verify-otp-service": {
                    "activity": "restful-invoke",
                    "endpoint": "$join($configuration('endpoints','otp'), '/Application/' , $get('mobile-otp-ref'), '/' + value.otp)",
                    "type": "get"
                },
                "eval-status": "$setStatus('person', 'mobile', 'verified', value.status.toLowerCase() === 'success')",
                "return": "$return('ok', $getStatus())"
            },
            "create-account": {
                "$accepts": {
                    "name": "string(50)",
                    "email": "string(50)",
                    "username": "string(50)",
                    "roles": [
                        "string(50)"
                    ],
                    "password": "string(50)"
                },
                "$returns": {
                    "status": "string('success'|'failure')"
                },
                "$prerequisites": {
                    "must-have-otp-ref-no": {
                        "check": "$isSet('mobile-otp-ref')",
                        "pending": [
                            "send-otp"
                        ]
                    }
                },
                "set-stuff": "$set('buffer',value)",
                "invoke-account-service": {
                    "activity": "restful-invoke",
                    "endpoint": "$configuration('endpoints','identity')",
                    "type": "put",
                    "payload": "{ 'name': $join($get('firstName'), ' ', $get('lastName')), 'email': $get('email'), 'username': $get('mobile','number'), 'roles':['Marketing'], 'password': value.password }"
                },
                "eval-status": "$set('account', value)",
                "get-buffer": "$get('buffer')",
                "get-access-token-account-service": {
                    "activity": "restful-invoke",
                    "endpoint": "$join($configuration('endpoints','identity'), '/login')",
                    "type": "post",
                    "payload": "{ 'username': $get('mobile','number'), 'password': value.password }"
                },
                "set-token": "$set('account','token', value.token)",
                "set-account-created": "$setStatus('account', { 'created': true})",
                "return": "$return('ok', $get('account'))"
            }
        },
        "work": {
            "set": {
                "$accepts": {
                    "employerName": "string(10)",
                    "salary": "string(10)",
                    "officialEmail": "string(10)"
                },
                "$returns": {
                    "reason": "string(10)",
                    "hint": "string(100)"
                },
                "save-to-store": "$set(value)",
                "get-hunter-score": {
                    "activity": "restful-invoke",
                    "endpoint": "$join($configuration('endpoints', 'hunter'), value.officialEmail)",
                    "type": "get"
                },
                "save-hunter-score": "$set('hunter', value)",
                "get-actual-value": "$get()",
                "save-status": "$setStatus(value)",
                "return": "$return('ok',value)"
            }
        },
        "expenses": {
            "set-residence": {
                "$accepts": {
                    "residenceType": "string(10)",
                    "haveHomeLoan": "string(10)",
                    "emi": "string(10)",
                    "rent": "string(10)"
                },
                "$returns": {
                    "reason": "string(10)",
                    "hint": "string(100)"
                },
                "save-to-store": "$set('residence', value)",
                "save-state": "$setStatus('residence', value)",
                "return": "$return('ok', value )"
            },
            "set-other": {
                "$accepts": {
                    "emi": "string(10)",
                    "other": "string(10)"
                },
                "$returns": {
                    "reason": "string(10)",
                    "hint": "string(100)"
                },
                "save-to-store": "$set('other', value)",
                "save-state": "$setStatus('expenses', value)",
                "return": "$return('ok',  value  )"
            },
            "set-credit-card": {
                "$accepts": {
                    "hasCreditCard": "string(10)",
                    "balance": "string(10)"
                },
                "$returns": {
                    "reason": "string(10)",
                    "hint": "string(100)"
                },
                "save-to-store": "$set('credit-card', value)",
                "save-status": "$setStatus('credit-card', value)",
                "return": "$return('ok', value )"
            }
        },
        "details": {
            "get-location-details": {
                "$accepts": {
                    "pin": 384002
                },
                "get-zip-info": {
                    "activity": "restful-invoke",
                    "endpoint": "$join('http://postalpincode.in/api/pincode/', value.pin)",
                    "type": "get"
                },
                "return": "$return('ok', (value && value.PostOffice && value.PostOffice.length) ? { 'District': value.PostOffice[0].District, 'State': value.PostOffice[0].State } : undefined)"
            },
            "set": {
                "$accepts": {
                    "dateOfBirth": "string(10)",
                    "PAN": "string(10)",
                    "adhar": "string(10)",
                    "address": "string(10)",
                    "locality": "string(10)",
                    "city": "string(10)",
                    "pin": "string(10)"
                },
                "$returns": {
                    "reason": "string(10)",
                    "hint": "string(100)"
                },
                "save-to-store": "$set(value)",
                "save-status": "$setStatus(value)",
                "get-zip-info": {
                    "activity": "restful-invoke",
                    "endpoint": "$join('http://postalpincode.in/api/pincode/', value.pin)",
                    "type": "get"
                },
                "generate-new-value": "$({ PostOffice: value.PostOffice, city: $get('city') })",
                "validate-city": "$setStatus('city-is', { 'valid': value.PostOffice && value.PostOffice.filter(function(postoffice) { return postoffice.District.toLowerCase() === value.city.toLowerCase(); }).length > 0 })",
                "crif-call": {
                    "activity": "restful-invoke",
                    "endpoint": "$join($configuration('endpoints', 'crif-pan'), '/workflow/', '12345')",
                    "type": "post",
                    "payload": "{ 'name': 'NITIN JAIN',  'gender':'Male','dob':'2000-09-08','pan': $get('PAN') }"
                },
                "verify-pan": "$setStatus('pan-is', {'valid': value.score > 0} )",
                "return": "$return('ok', $getStatus())"
            }
        },
        "application": {
            "fetch-credit-report": {
                "crif-make-inquiry": {
                    "activity": "restful-invoke",
                    "endpoint": "$join($configuration('endpoints', 'crif-report'), '/workflow/', '12345')",
                    "type": "post",
                    "payload": "{  'name':'Nitin Jain',  'dob':'1981-03-05T00:00:00+05:30',  'Gender' :'MALE',  'VoterId':'AFUPJ7365N',   'MobileNo':'9551542844',  'Addresses': [    {      'type': 'Residence',      'address': '165049,1128,KFC,BANU NAGAR 29TH AVUNUE PUDUR,Silkboard,BANGALORE,KARNATAKA,600053',      'city': 'BANGALORE',      'state': 'Karnataka',      'pin': '600053'    }  ]  }"
                },
                "crif-credit-report": {
                    "activity": "restful-invoke",
                    "endpoint": "$join($configuration('endpoints', 'crif-report'), '/workflow/', '12345', '/', value.inquiryReferenceNumber, '/', value.reportId)",
                    "type": "get"
                },
                "store": "$setStatus({ 'report': value })",
                "return": "$return('ok', $getStatus())"
            },
            "dry-run-initial-check": {
                "fetch-birth-date": "$($facts['details'].$get('dateOfBirth'))",
                "save-birth-date": "$set('dateOfBirth', value.split('/').reverse().join('-'))",
                "prepare-args": "$({ 'AgeVerify' : { 'DateOfBirth' : $get('dateOfBirth') }, 'CityVerify' : { 'City': $facts['details'].$get('city') }, 'IncomeVerify': { 'Income': $facts['work'].$get('salary') }, 'LoanAmountVerify':{ 'LoanAmount': $facts['amount'].$get() }, 'EmpTypeVerify': { 'EmpType': 'salaried' }, 'EMIToIncome': { 'SelfEMI': 10000, 'Income': $facts['work'].$get('salary') }, 'CCToIncome': {\t'SelfBalance': 1000, 'Income': 100000 }, 'AgeGreaterThan58': { 'DateOfBirth' : $get('dateOfBirth') }, 'PAN4thLetter': { 'PAN': $facts['details'].$get('PAN') },'PAN5thLetter': { 'PAN': $facts['details'].$get('PAN'), 'FirstName': $facts['person'].$get('firstName'), 'LastName': $facts['person'].$get('lastName') } } )"
            },
            "run-initial-check": {
                "fetch-birth-date": "$($facts['details'].$get('dateOfBirth'))",
                "save-birth-date": "$set('dateOfBirth', value.split('/').reverse().join('-'))",
                "prepare-args": "$({ 'AgeVerify' : { 'DateOfBirth' : $get('dateOfBirth') }, 'CityVerify' : { 'City': $facts['details'].$get('city') }, 'IncomeVerify': { 'Income': $facts['work'].$get('salary') }, 'LoanAmountVerify':{ 'LoanAmount': $facts['amount'].$get() }, 'EmpTypeVerify': { 'EmpType': 'salaried' }, 'EMIToIncome': { 'SelfEMI': 10000, 'Income': $facts['work'].$get('salary') }, 'CCToIncome': {\t'SelfBalance': 1000, 'Income': 100000 }, 'AgeGreaterThan58': { 'DateOfBirth' : $get('dateOfBirth') }, 'PAN4thLetter': { 'PAN': $facts['details'].$get('PAN') },'PAN5thLetter': { 'PAN': $facts['details'].$get('PAN'), 'FirstName': $facts['person'].$get('firstName'), 'LastName': $facts['person'].$get('lastName') } } )",
                "store-prepare-args": "$set('args', value)",
                "eval-eli-rule-by-id": {
                    "activity": "restful-invoke",
                    "endpoint": "$join($configuration('endpoints', 'rulesengine'),'/PreScreen/EligibilityCheck/1.0.0/evaluate')",
                    "type": "post",
                    "payload": "{ 'Parameter': $get('args') }"
                },
                "save-eli-response": "$set('isEligible', value.preScreen.eligibilityCheck.ageVerify && value.preScreen.eligibilityCheck.cityVerify && value.preScreen.eligibilityCheck.incomeVerify && value.preScreen.eligibilityCheck.loanAmountVerify && value.preScreen.eligibilityCheck.empTypeVerify)",
                "eval-rej-rule-by-id": {
                    "activity": "restful-invoke",
                    "endpoint": "$join($configuration('endpoints', 'rulesengine'),'/PreScreen/RejectCriteria/1.0.0/evaluate')",
                    "type": "post",
                    "payload": "{ 'Parameter': $get('args') }"
                },
                "save-rej": "$set('isRejected', value.preScreen.rejectCriteria.emiToIncome || value.preScreen.rejectCriteria.ccToIncome || value.preScreen.rejectCriteria.ageGreaterThan58 || value.preScreen.rejectCriteria.paN4thLetter || value.preScreen.rejectCriteria.paN5thLetter)",
                "save-result": "$set('final-result', $({'isRejected': $get('isRejected'), 'isEligible': $get('isEligible')}))",
                "return": "$return('ok', {'isRejected': value.isRejected, 'isEligible': value.isEligible, 'canContinue': value.isRejected === false && value.isEligible === true})"
            },
            "submit": {
                "$accepts": {
                    "ipAddress": "10.1.1.99",
                    "workflowId": "workflowId"
                },
                "set1": "$set('cache', { 'IpAddress': value.ipAddress, 'workflowId': value.workflowId})",
                "signCreditPullConsent": {
                    "activity": "restful-invoke",
                    "endpoint": "$join($configuration('endpoints', 'consent'),'/Application/', value.workflowId, '/CreditPullConsent/sign')",
                    "type": "post",
                    "payload": "{ 'IPAddress': value.IpAddress , 'SignedBy': '1' }"
                },
                "set2": "$set('signCreditPullConsent', value)",
                "get1": "$get('cache')",
                "BankAccInfoConsent": {
                    "activity": "restful-invoke",
                    "endpoint": "$join($configuration('endpoints', 'consent'),'/Application/', value.workflowId, '/BankAccInfoConsent/sign')",
                    "type": "post",
                    "payload": "{ 'IPAddress': value.IpAddress , 'SignedBy': '1' }"
                },
                "set3": "$set('BankAccInfoConsent', value)",
                "get2": "$get('cache')",
                "EmploymentVerificationConsent": {
                    "activity": "restful-invoke",
                    "endpoint": "$join($configuration('endpoints', 'consent'),'/Application/', value.workflowId, '/EmploymentVerificationConsent/sign')",
                    "type": "post",
                    "payload": "{ 'IPAddress': value.IpAddress , 'SignedBy': '1' }"
                },
                "set4": "$set('EmploymentVerificationConsent', value)",
                "get3": "$get('cache')",
                "eKYCVerificationConsent": {
                    "activity": "restful-invoke",
                    "endpoint": "$join($configuration('endpoints', 'consent'),'/Application/', value.workflowId, '/eKYCVerificationConsent/sign')",
                    "type": "post",
                    "payload": "{ 'IPAddress': value.IpAddress , 'SignedBy': '1' }"
                },
                "set5": "$set('eKYCVerificationConsent', value)",
                "get4": "$get('cache')",
                "LocationVerificationConsent": {
                    "activity": "restful-invoke",
                    "endpoint": "$join($configuration('endpoints', 'consent'),'/Application/', value.workflowId, '/LocationVerificationConsent/sign')",
                    "type": "post",
                    "payload": "{ 'IPAddress': value.IpAddress , 'SignedBy': '1' }"
                },
                "set7": "$set('LocationVerificationConsent', value)",
                "set8": "$set('cache', undefined)",
                "set-status": "$get()",
                "return": "$return('ok', $setStatus(value))"
            },
            "submit-1": {
                "setstore": "$set('args', {  'primaryApplicant': {\t  'userId': '57f7a0d5186a8600077d5479',\t  'salutation': 'Mr',\t  'firstName': 'Amit',\t  'lastName': 'Dave',\t  'middleName': 'Y',\t  'emailAddresses': [\t    {\t      'email': 'contactsam25@gmail.com',\t      'emailType': 'Personal',\t      'isDefault': true\t    }\t  ],\t  'aadhaarNumber': '12345',\t  'permanentAccountNumber': '45345345',\t  'dateOfBirth': '2016-09-02T15:24:28.2480918+05:30',\t  'phoneNumbers': [\t    {\t      'phone': '9898344754',\t      'countryCode': '+91',\t      'phoneType': 'Residence',\t      'isDefault': false\t    }\t  ],\t  'addresses': [\t    {\t      'addressLine1': 'D',\t      'addressLine2': 'LOL',\t      'city': 'Bangalore',\t      'state': 'Karnataka',\t      'pinCode': '380034',\t      'country': 'India',\t      'addressType': 'Residence',\t      'isDefault': false\t    }\t  ],\t  'gender': 'Male',\t  'maritalStatus': 'Single',\t  'employmentDetails': []  },  'requestedAmount': '300000',  'requestedTermType': 'Monthly',  'requestedTermValue': '12.5',  'purposeOfLoan': 'MovingAndRelocation',  'source': {    'trackingCode': 'Code123',    'systemChannel': 'Merchant',    'sourceType': 'Merchant',    'sourceReferenceId': 'Ref123'  },  'initialOffer': {    'offerId': 'Offer123',    'givenLoanAmount': 278000,    'disbursedLoanAmount': 0,    'annualPercentageRate': 15,    'interestRate': 10,    'repaymentFrequency': 'Monthly',    'repaymentInstallmentAmount': '0',    'numberOfIntallments': '0',    'offerFees': null,    'loanTerm': '1'  },  'employmentDetail': {    'name': 'Sigma',    'workEmailId':     {      'email': 'worktest@gmail.com',      'emailType': 'Personal',      'isDefault': true    },    'employmentStatus': 'Salaried',    'lengthOfEmployment':'5'  },  'residenceType': 'OwnedSelf',  'selfDeclareExpense': {    'monthlyRent': '5000',    'emi': '5000',    'monthlyExpenses': '10000',    'creditCardBalances': '12000'  }})",
                "create-applicant": {
                    "activity": "restful-invoke",
                    "endpoint": "$configuration('endpoints', 'application')",
                    "type": "post",
                    "payload": "$get('args')"
                },
                "set-random-offer-amount": "$set('args', 'initialOffer', 'givenLoanAmount', (Math.random() * (500000-200000) + 200000).toFixed(0))",
                "get-args": "$get('args')"
            }
        }
    }
}