{
    "ApplicationDate": "",
    "LogPath": "",
    "SavePath": "E:/CE/ce_tasks/src/CreditExchange.Tasks.ApplicationCSVFileGenerator",
    "FromEmailAddress": "anuj@qbera.com",
    "ToEmailAddress": "",
    "SmtpHost": "email-smtp.us-east-1.amazonaws.com",
    "SmtpPort": "587",
    "EnableSsl": true,
    "UseDefaultCredentials": false,
    "SmptTimeout": 3000000,
    "EmailSubject": "Data Dump",
    "EmailBody": "Please find the files attached Files",
    "MongoConnectionString": "mongodb://192.168.1.71:27017",
    "UserName": "",
    "Password": ""
}