{
    "application": [
        {
            "Name": "GovernmentListed",
            "Rule": {
                "RuleName": "GovernmentListed",
                "Version": "1.0"
            }
        },
        {
            "Name": "GovernmentUnlisted",
            "Rule": {
                "RuleName": "GovernmentUnlisted",
                "Version": "1.0"
            }
        },
        {
            "Name": "GovernmentUnlistedFinancial",
            "Rule": {
                "RuleName": "GovernmentUnlistedFinancial",
                "Version": "1.0"
            }
        },
        {
            "Name": "ListedCompany",
            "Rule": {
                "RuleName": "ListedCompany",
                "Version": "1.0"
            }
        },
        {
            "Name": "PrivateCompany",
            "Rule": {
                "RuleName": "PrivateCompany",
                "Version": "1.0"
            }
        },
        {
            "Name": "PrivateCompanyFinancial",
            "Rule": {
                "RuleName": "PrivateCompanyFinancial",
                "Version": "1.0"
            }
        }
    ]
}