{
    "emailProvider": "SendGrid",
    "emailProviderSettings": {
        "SendGrid": {
            "ApiKey": "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",
            "FromName": "Qbera",
            "FromAddress": "contact@qbera.com"
        }
    }
}