{
    "entityTypes": {
        "application": {
            "checklist": [
                {
                    "code": "bank-verification",
                    "title": "Bank verification completed",
                    "ruleName": "ruleForBankVerificationForChecklist",
                    "ruleVersion": "1.0"
                },
                {
                    "code": "employment-verification",
                    "title": "Employment verification completed",
                    "ruleName": "ruleForEmploymentVerificationForChecklist",
                    "ruleVersion": "1.0"
                },
                {
                    "code": "kyc-pan-verification",
                    "title": "KYC Pan verification completed",
                    "ruleName": "ruleForKYCPanVerificationForChecklist",
                    "ruleVersion": "1.0"
                },
                {
                    "code": "kyc-address-verification",
                    "title": "KYC address verification completed",
                    "ruleName": "ruleForKYCAddressVerificationForChecklist",
                    "ruleVersion": "1.0"
                },
                {
                    "code": "mobile-verification",
                    "title": "Mobile verification completed",
                    "ruleName": "ruleForMobileVerificationForChecklist",
                    "ruleVersion": "1.0"
                },
                {
                    "code": "personal-email-verification",
                    "title": "Personal email verification completed",
                    "ruleName": "ruleForPersonalEmailVerificationForChecklist",
                    "ruleVersion": "1.0"
                },
                {
                    "code": "residence-verification",
                    "title": "residence verification completed",
                    "ruleName": "ruleForResidenceVerificationForChecklist",
                    "ruleVersion": "1.0"
                },
                {
                    "code": "ancillaryData-verification",
                    "title": "ancillaryData verification completed",
                    "ruleName": "ruleForAncillaryDataVerificationForChecklist",
                    "ruleVersion": "1.0"
                },
                {
                    "code": "pan-manual-verification",
                    "title": "pan verification completed",
                    "ruleName": "ruleForPanManualVerificationForChecklist",
                    "ruleVersion": "1.0"
                }
            ],
            "statuses": [
                {
                    "code": "200.01",
                    "name": "Lead Created",
                    "label": "Lead",
                    "style": "Lead",
                    "transitions": [
                        "200.02",
                        "200.15",
                        "200.16",
                        "200.14"
                    ],
                    "activities": {
                        "Contacted but No Answer": "Contacted but No Answer",
                        "Number Not Reachable": "Number Not Reachable",
                        "Notes": "Notes",
                        "Call from Borrower": "Call from Borrower",
                        "Borrower Followup": "Borrower Followup"
                    }
                },
                {
                    "code": "200.02",
                    "name": "Application Submitted",
                    "label": "Application",
                    "style": "Application",
                    "checklist": [
                        "mobile-verification"
                    ],
                    "transitions": [
                        "200.03",
                        "200.15",
                        "200.16",
                        "200.14"
                    ],
                    "activities": {
                        "Contacted but No Answer": "Contacted but No Answer",
                        "Number Not Reachable": "Number Not Reachable",
                        "Notes": "Notes",
                        "Call from Borrower": "Call from Borrower",
                        "Borrower Followup": "Borrower Followup"
                    }
                },
                {
                    "code": "200.03",
                    "name": "Initial Offer Given",
                    "label": "Offer Given",
                    "style": "Offer Given",
                    "transitions": [
                        "200.04",
                        "200.14",
                        "200.15"
                    ],
                    "activities": {
                        "Contacted but No Answer": "Contacted but No Answer",
                        "Number Not Reachable": "Number Not Reachable",
                        "Notes": "Notes",
                        "Call from Borrower": "Call from Borrower",
                        "Borrower Followup": "Borrower Followup"
                    }
                },
                {
                    "code": "200.04",
                    "name": "Initial Offer Selected",
                    "label": "Offer Selected",
                    "style": "Offer Selected",
                    "transitions": [
                        "200.05",
                        "200.06",
                        "200.14",
                        "200.15",
                        "200.16"
                    ],
                    "activities": {
                        "Contacted but No Answer": "Contacted but No Answer",
                        "Number Not Reachable": "Number Not Reachable",
                        "Notes": "Notes",
                        "Call from Borrower": "Call from Borrower",
                        "Borrower Followup": "Borrower Followup"
                    }
                },
                {
                    "code": "200.05",
                    "name": "Credit Review",
                    "label": "Manual UW",
                    "style": "Manual UW",
                    "transitions": [
                        "200.06",
                        "200.15",
                        "200.16",
                        "200.14"
                    ],
                    "reasons": {
                        "CompUnclass": "Company Unclassified",
                        "OtherPurpose": "Other Loan Purpose",
                        "HigherMaxCredit": "Monthly Income Max-Credit MisMatch",
                        "ThinLowScore": "Thin File Low Score",
                        "NTCLowScore": "NTC File Low Score",
                        "ThickLowScore": "Thick File Low App and Bureau Score",
                        "ThickAppBureauMisMatch": "Thick File  App and Bureau Score MisMatch",
                        "AddressUnVerified": "Bureau Address Verification Failed",
                        "HighIncome": "Higher Monthly Income",
                        "PerfiosNameNotExist": "Perfios Name Not Exist",
                        "PerfiosNameNotMatch": "Perfios Name not Matched with application",
                        "IncomeDeviation": "More Income deviation",
                        "NoECSBounce": "No ECS Bounce",
                        "DefaultManualReview": "Default Manual Review",
                        "PANNotVerfied": "Pan Verificaiton Failed",
                        "CIBILAdditionalMatchFound": "CIBILAdditionalMatchFound",
                        "MissingSalaryNarrations": "MissingSalaryNarrations"
                    },
                    "activities": {
                        "Contacted but No Answer": "Contacted but No Answer",
                        "Number Not Reachable": "Number Not Reachable",
                        "Notes": "Notes",
                        "Call from Borrower": "Call from Borrower",
                        "Borrower Followup": "Borrower Followup"
                    }
                },
                {
                    "code": "200.06",
                    "name": "Final offer made",
                    "label": "Offer Ready",
                    "style": "Offer Ready",
                    "transitions": [
                        "200.07",
                        "200.14",
                        "200.15",
                        "200.16",
                        "200.12"
                    ],
                    "activities": {
                        "Contacted but No Answer": "Contacted but No Answer",
                        "Number Not Reachable": "Number Not Reachable",
                        "Notes": "Notes",
                        "Call from Borrower": "Call from Borrower",
                        "Borrower Followup": "Borrower Followup"
                    }
                },
                {
                    "code": "200.07",
                    "name": "Final offer Accepted",
                    "label": "Agreement/KYC",
                    "style": "Agreement/KYC",
                    "transitions": [
                        "200.08",
                        "200.14",
                        "200.15",
                        "200.16",
                        "200.12"
                    ],
                    "activities": {
                        "Contacted but No Answer": "Contacted but No Answer",
                        "Number Not Reachable": "Number Not Reachable",
                        "Notes": "Notes",
                        "Call from Borrower": "Call from Borrower",
                        "Borrower Followup": "Borrower Followup"
                    }
                },
                {
                    "code": "200.08",
                    "name": "CE Approved",
                    "label": "Approved",
                    "style": "Approved",
                    "checklist": [
                        "employment-verification",
                        "residence-verification",
                        "kyc-pan-verification",
                        "kyc-address-verification",
                        "pan-manual-verification",
                        "ancillaryData-verification"
                    ],
                    "transitions": [
                        "200.09",
                        "200.16",
                        "200.15",
                        "200.12"
                    ],
                    "activities": {
                        "Contacted but No Answer": "Contacted but No Answer",
                        "Number Not Reachable": "Number Not Reachable",
                        "Notes": "Notes",
                        "Call from Borrower": "Call from Borrower",
                        "Borrower Followup": "Borrower Followup"
                    }
                },
                {
                    "code": "200.09",
                    "name": "Bank Fraud Review",
                    "label": "RBL Fraud Review",
                    "style": "RBL Fraud Review",
                    "transitions": [
                        "200.10",
                        "200.16",
                        "200.15",
                        "200.12"
                    ],
                    "activities": {
                        "Need followup": "Need followup"
                    }
                },
                {
                    "code": "200.10",
                    "name": "Bank Credit Review",
                    "label": "RBL Credit Review",
                    "style": "RBL Credit Review",
                    "transitions": [
                        "200.11",
                        "200.15",
                        "200.16"
                    ],
                    "activities": {
                        "Need followup": "Need followup"
                    }
                },
                {
                    "code": "200.11",
                    "name": "Approved",
                    "label": "Approved",
                    "style": "Approved ",
                    "transitions": [
                        "200.12"
                    ],
                    "activities": {
                        "Contacted but No Answer": "Contacted but No Answer",
                        "Number Not Reachable": "Number Not Reachable",
                        "Notes": "Notes",
                        "Call from Borrower": "Call from Borrower",
                        "Borrower Followup": "Borrower Followup"
                    }
                },
                {
                    "code": "200.12",
                    "name": "Funded",
                    "label": "Funded",
                    "style": "Funded",
                    "transitions": [],
                    "activities": {
                        "Contacted but No Answer": "Contacted but No Answer",
                        "Number Not Reachable": "Number Not Reachable",
                        "Notes": "Notes",
                        "Call from Borrower": "Call from Borrower",
                        "Borrower Followup": "Borrower Followup"
                    }
                },
                {
                    "code": "200.14",
                    "name": "Not Interested",
                    "label": "Not Interested",
                    "style": "Not Interested ",
                    "transitions": [
                        "200.12"
                    ],
                    "reasons": {
                        "lesseramount": "This amount is less than my loan application amount",
                        "otherlender": "I'm taking a loan from some other lender",
                        "tooslow": "Application is taking too long a time",
                        "lessoffer": "This amount is less than my loan application amount",
                        "highinterest": "The interest rate is high",
                        "longduration": "The duration is too long",
                        "unexpectedemi": "I'm not happy with the EMI amount",
                        "unexpectedprocessingfee": "I'm not happy with the processing fee",
                        "unhappyoverall": "I'm not happy with the application experience",
                        "other": "Other"
                    },
                    "activities": {
                        "Contacted but No Answer": "Contacted but No Answer",
                        "Number Not Reachable": "Number Not Reachable",
                        "Notes": "Notes",
                        "Call from Borrower": "Call from Borrower",
                        "Borrower Followup": "Borrower Followup"
                    }
                },
                {
                    "code": "200.15",
                    "name": "Expired",
                    "label": "Expired",
                    "style": "Expired",
                    "transitions": [
                        "200.12"
                    ],
                    "reasons": {
                        "r9": "Auto expiry"
                    },
                    "activities": {
                        "Contacted but No Answer": "Contacted but No Answer",
                        "Number Not Reachable": "Number Not Reachable",
                        "Notes": "Notes",
                        "Call from Borrower": "Call from Borrower",
                        "Borrower Followup": "Borrower Followup"
                    }
                },
                {
                    "code": "200.16",
                    "name": "Rejected",
                    "label": "Declined",
                    "style": "Declined",
                    "transitions": [
                        "200.12"
                    ],
                    "activities": {
                        "Contacted but No Answer": "Contacted but No Answer",
                        "Number Not Reachable": "Number Not Reachable",
                        "Notes": "Notes",
                        "Call from Borrower": "Call from Borrower",
                        "Borrower Followup": "Borrower Followup"
                    },
                    "IsRejectionStatus": "true",
                    "reasons": {
                        "BureauScoreLow": "Low CIBIL Score",
                        "AgeMismatch": "Age not in Policy",
                        "HighInquiries": "Too Many Inquiries",
                        "BureauLoanDerog": "Delinquencies-CE 180",
                        "CCBalToIncomeHigh": "High Credit Card Balance",
                        "HighDPDTrade": "Delinquencies-CE 30",
                        "HighDPDTrade1": "Delinquencies-CE 60",
                        "IncomeLowL3": "NTC Below 25K",
                        "IncomeLowL2": "Thin File Below 25K",
                        "ReportedEMILow": "EMI Inconsistent",
                        "RBLLiveLoan": "RBL Live PL",
                        "RBLDefaultLoan": "Delinquencies-RBL Loan",
                        "RBLInquiryRule": "RBL PL Inquiry",
                        "RBLDPDRule1": "Delinquencies-RBL 15",
                        "RBLOverdueRule": "Delinquencies-RBL OD",
                        "RBLDPDRule2": "Delinquencies-RBL 90",
                        "RBLDPDRule3": "Delinquencies-RBL 180",
                        "LoanPurposeCheck": "Loan Purpose not Supported",
                        "CitySupported2": "Unsupported Geo Region",
                        "CitySupported1": "Location not in Policy",
                        "EmpNotExist": "Employer not in DB",
                        "IncomeOutOfRange": "Income Out Of Range",
                        "LoanAmtMismatch": "LoanAmount Mismatch with Credit File",
                        "EmpTypeNotSupported": "Employment Type Not Supported",
                        "InvalidPANNumber": "Invalid PAN Number",
                        "HighDTILowIncomeL1": "Higher Debt Compared to Income",
                        "CCBalanceRatioHigh": "High Credit Card Balance",
                        "HighRiskZipRule1": "High Risk PIN Code",
                        "HighRiskZipRule2": "High Risk PIN Code",
                        "HighRiskZipRule3": "High Risk PIN Code",
                        "HighRiskZipRule4": "High Risk PIN Code",
                        "PANNotVerfied": "Unable to Verify PAN",
                        "LOWELIGIBILITY": "High DTI/No Eligibility",
                        "BankIncomeLowL4": "Net Salary below 20K",
                        "ClearingFailedL4": "Clearing Failed",
                        "HighDTILowIncomeL2": "High DTI Low Income",
                        "LowCEScore": "Low CE Score",
                        "ECSChequeBounce": "ECS/Cheque Bounce",
                        "SalaryDiscrepancy": "Salary Discrepancy",
                        "DualPAN": "Dual PAN",
                        "InsufficientBanking": "Insufficient Banking",
                        "r10": "CE decline",
                        "r11": "Bank decline"
                    }
                }
            ]
        }
    }
}