{
    "searchname": "rejected",
    "searchFilterView": [
        {
            "StatusCode": "200.16"
        }
    ],
    "inTagsSearch": [],
    "notInTagsSearch": [],
    "operator": "or",
    "projections": {
        "_id": 0,
        "ApplicationNumber": 1,
        "ApplicantId": 1,
        "Submitted": 1,
        "Applicant": 1,
        "ApplicantPhone": 1,
        "AmountRequested": 1,
        "OfferRejectedDate": 1,
        "SourceType": 1,
        "Assignees": 1,
        "ApplicantPersonalEmail": 1,
        "ApplicantWorkEmail": 1,
        "ApplicantPanNumber": 1,
        "ApplicantAadharNumber": 1,
        "ApplicantAddressLine1": 1,
        "ApplicantAddressLine2": 1,
        "ApplicantAddressCity": 1,
        "ApplicantEmployer": 1,
        "StatusName": 1,
        "ApplicantAddressPincode": 1,
        "Income": 1
    },
    "sorts": {
        "ApplicationNumber": -1
    },
    "exportFields": [
        "ApplicationNumber",
        "Applicant",
        "AmountRequested",
        "ApplicantPersonalEmail",
        "ApplicantWorkEmail",
        "ApplicantPhone",
        "ApplicantPanNumber",
        "ApplicantAadharNumber",
        "ApplicantAddressLine1",
        "ApplicantAddressLine2",
        "ApplicantAddressCity",
        "ApplicantAddressPincode",
        "ApplicantEmployer",
        "Income",
        "Submitted.DateTime",
        "StatusName"
    ],
    "exportFieldNames": [
        "Application Number",
        "Applicant Name",
        "Requested Amount",
        "Applicant PersonalEmail",
        "Applicant WorkEmail",
        "Applicant Phone",
        "PAN Number",
        "Aadhar Number",
        "ApplicantAddressLine1",
        "ApplicantAddressLine2",
        "ApplicantAddressCity",
        "ApplicantAddressPincode",
        "Employer",
        "Income",
        "Application Submitted Date",
        "Status"
    ]
}