{
    "searchname": "scheduling",
    "searchFilterView": [],
    "inTagsSearch": [
        "Pending Scheduling"
    ],
    "notInTagsSearch": [],
    "operator": "or",
    "projections": {
        "_id": 0,
        "ApplicationNumber": 1,
        "ApplicantId": 1,
        "AmountRequested": 1,
        "Submitted": 1,
        "Applicant": 1,
        "ApplicantPhone": 1,
        "ApplicantPersonalEmail": 1,
        "ApplicantWorkEmail": 1,
        "ApplicantPanNumber": 1,
        "ApplicantAadharNumber": 1,
        "ApplicantAddressLine1": 1,
        "ApplicantAddressLine2": 1,
        "ApplicantAddressCity": 1,
        "StatusName": 1,
        "FinalOfferAmount": 1,
        "ApplicantEmployer": 1,
        "FinalOfferSelectedOn": 1,
        "SourceType": 1,
        "Assignees": 1
    },
    "sorts": {
        "ApplicationNumber": -1
    },
    "exportFields": [
        "ApplicationNumber",
        "Applicant",
        "AmountRequested",
        "ApplicantPersonalEmail",
        "ApplicantWorkEmail",
        "ApplicantPhone",
        "ApplicantPanNumber",
        "ApplicantAadharNumber",
        "ApplicantAddressLine1",
        "ApplicantAddressLine2",
        "ApplicantAddressCity",
        "ApplicantEmployer",
        "Submitted.DateTime",
        "StatusName"
    ],
    "exportFieldNames": [
        "Application Number",
        "Applicant Name",
        "Requested Amount",
        "Applicant PersonalEmail",
        "Applicant WorkEmail",
        "Applicant Phone",
        "PAN Number",
        "Aadhar Number",
        "ApplicantAddressLine1",
        "ApplicantAddressLine2",
        "ApplicantAddressCity",
        "Employer",
        "Application Submitted Date",
        "Status"
    ]
}