{
    "base": "http://localhost:5052/app/",
    "apps": {
        "securityLogin": {
            "layout": "app/layout-blank.html",
            "src": "security/login.html",
            "public": true
        },
        "securityRequest": {
            "layout": "app/layout-blank.html",
            "src": "security/request.html",
            "public": true
        },
        "securityReset": {
            "layout": "app/layout-blank.html",
            "src": "security/reset.html",
            "public": true
        },
        "welcome": {
            "src": "borrower/elements/application-summary/application-summary.html",
            "layout": "borrower/layouts/borrower.html",
            "public": true,
            "configuration": {}
        },
        "amount": {
            "src": "app/index-1.html",
            "layout": "app/layout.html",
            "public": true,
            "configuration": {}
        },
        "reason": {
            "src": "app/index-2.html",
            "layout": "app/layout.html",
            "public": true,
            "configuration": {}
        },
        "you": {
            "src": "app/index-3.html",
            "layout": "app/layout.html",
            "public": true,
            "configuration": {}
        },
        "mobile": {
            "src": "app/index-4.html",
            "layout": "app/layout.html",
            "public": true,
            "configuration": {}
        },
        "otp": {
            "src": "app/index-5.html",
            "layout": "app/layout.html",
            "public": true,
            "configuration": {}
        },
        "create": {
            "src": "app/index-6.html",
            "layout": "app/layout.html",
            "public": true,
            "configuration": {}
        },
        "work": {
            "src": "app/index-7.html",
            "layout": "app/layout.html",
            "public": true,
            "configuration": {}
        },
        "expenses": {
            "src": "app/index-8.html",
            "layout": "app/layout.html",
            "public": true,
            "configuration": {}
        },
        "personal": {
            "src": "app/index-9.html",
            "layout": "app/layout.html",
            "public": true,
            "configuration": {}
        },
        "review": {
            "src": "app/index-10.html",
            "layout": "app/layout.html",
            "public": true,
            "configuration": {}
        },
        "offer": {
            "src": "app/index-12.html",
            "layout": "app/layout-rbl.html",
            "public": true,
            "configuration": {}
        },
        "reject": {
            "src": "app/index-21.html",
            "layout": "app/layout-rbl.html",
            "public": true,
            "configuration": {}
        },
        "social": {
            "src": "app/index-14.html",
            "layout": "app/layout-rbl.html",
            "public": true,
            "configuration": {}
        },
        "banking": {
            "src": "app/index-13.html",
            "layout": "app/layout-rbl.html",
            "public": true,
            "configuration": {}
        },
        "education": {
            "src": "app/index-15.html",
            "layout": "app/layout-rbl.html",
            "public": true,
            "configuration": {}
        },
        "employment": {
            "src": "app/index-16.html",
            "layout": "app/layout-rbl.html",
            "public": true,
            "configuration": {}
        },
        "disbursement": {
            "src": "app/index-17.html",
            "layout": "app/layout-rbl.html",
            "public": true,
            "configuration": {}
        },
        "initial-offer": {
            "src": "app/index-11.html",
            "layout": "app/layout-rbl.html",
            "public": true,
            "configuration": {}
        },
        "final-offer": {
            "src": "app/index-25.html",
            "layout": "app/layout-rbl.html",
            "public": true,
            "configuration": {}
        },
        "kyc": {
            "src": "app/index-18.html",
            "layout": "app/layout-rbl.html",
            "public": true,
            "configuration": {}
        }
    },
    "private": {
        "layout": "borrower/layouts/private.html",
        "app": "amount",
        "url": "#/amount"
    },
    "public": {
        "layout": "borrower/layouts/borrower.html",
        "url": "#/amount",
        "app": "amount"
    },
    "services": {
        "configuration": "http://192.168.1.61:5008",
        "notification": "http://192.168.1.61:5111",
        "emailhunter": "http://192.168.1.61:5013",
        "workflow": "http://qa.api.creditexchange.com:3000",
        "rulesengine": "http://192.168.1.61:5000",
        "application": "http://192.168.1.61:5515",
        "flowAnalytics": "http://192.168.1.61:6011"
    }
}