{
    "application": {
        "ApplicationCreated": {
            "EntityId": "{Data.Application.ApplicationNumber}",
            "RuleName": "data_attribute_applicationcreated",
            "RuleVersion": "1.0"
        },
        "ApplicationModified": {
            "EntityId": "{Data.Application.ApplicationNumber}",
            "RuleName": "data_attribute_applicationcreated",
            "RuleVersion": "1.0"
        },
        "CompanyDbCategoryRequested": {
            "EntityId": "{Data.EntityId}",
            "RuleName": "data_attribute_companycategorydatarequested",
            "RuleVersion": "1.0"
        },
        "CrifCreditReportPulled": {
            "EntityId": "{Data.EntityId}",
            "RuleName": "data_attribute_creditcreditreportpulled",
            "RuleVersion": "1.0"
        },
        "PanVerificationRequested": {
            "EntityId": "{Data.EntityId}",
            "RuleName": "data_attribute_crifpanverificationrequested",
            "RuleVersion": "1.0",
            "EventsToBePublish": [
                "CrifPanAttributesUpdated"
            ]
        },
        "GeoRiskPinCodeVerified": {
            "EntityId": "{Data.EntityId}",
            "RuleName": "data_attribute_georiskpincodeverified",
            "RuleVersion": "1.0"
        },
        "LenddoClientVerificationRequested": {
            "EntityId": "{Data.EntityId}",
            "RuleName": "data_attribute_lendosocialscorerequested",
            "RuleVersion": "1.0"
        },
        "PerfiosXmlReportPulled": {
            "EntityId": "{Data.EntityId}",
            "RuleName": "data_attribute_perfiosreportpulled",
            "RuleVersion": "1.0"
        },
        "ZumigoValidatedOnlineTransaction": {
            "EntityId": "{Data.EntityId}",
            "RuleName": "data_attribute_zumigovalidationonlinetransaction",
            "RuleVersion": "1.0"
        },
        "cibilreportpulled": {
            "EntityId": "{Data.EntityId}",
            "RuleName": "data_attribute_cibilreportpulled",
            "RuleVersion": "1.0"
        },
        "InitialOfferSelected": {
            "EntityId": "{Data.EntityId}",
            "RuleName": "data_attribute_InitialOfferSelected",
            "RuleVersion": "1.0"
        },
        "FinalOfferSelected": {
            "EntityId": "{Data.EntityId}",
            "RuleName": "data_attribute_FinalOfferAccepted",
            "RuleVersion": "1.0"
        },
        "YodleeCashFlowReportPulled": {
            "EntityId": "{Data.EntityId}",
            "RuleName": "data_attribute_yodleereportpulled",
            "RuleVersion": "1.0"
        },
        "DomainSearched": {
            "EntityId": "{Data.EntityId}",
            "RuleName": "data_attribute_DomainSearched",
            "RuleVersion": "1.0"
        },
        "InitialofferCompleted": {
            "EntityId": "{Data.InitialOffer.EntityId}",
            "RuleName": "data_attribute_InitialofferCompleted",
            "RuleVersion": "1.0"
        }
    }
}