{
    "verificationexpirywindow": "10",
    "emailVerificationSettings": {
        "borrower": {
            "templatename": "EmailVerification",
            "version": "1.0",
            "format": "Html"
        },
        "merchant": {
            "templatename": "EmailVerification",
            "version": "1.0",
            "format": "Html"
        },
        "back-office": {
            "templatename": "EmailVerification",
            "version": "1.0",
            "format": "Html"
        }
    }
}