{
    "Expiration": {
        "StatusCode": "200.15",
        "Reason": "r9",
        "ExcludedStatuses": [
            "200.12",
            "200.13",
            "200.14",
            "200.15",
            "200.16"
        ]
    }
}