{
    "EmailPersonalizationApiKey": "6ea57e526bbe35842bb9757e0e09efc6",
    "EmailPersonalizationApiBaseUrl": "http://simulation:5000/towerdata",
    "VerificationApiKey": "XY9J2dg6E7",
    "VerificationApiBaseUrl": "http://simulation:5000/towerdata"
}