{  
   "MobileSms":"Mobile SMS",
   "CrifPanVerifcation":"Crif Pan",
   "CibilSyndicationReport":"Cibil",
   "Perfios":"Perfios",
   "BankStatementForm":"Bank Statement",
   "EmailVerification":"Email Verification",
   "Lenddo":"Lendo",
   "Zumigo":"Zumigo",
   "PhysicalVerification":"Physical Verification",
   "EmployementWorkEmail":"Employement Work Email",
   "Form26ASForm":"Form 26 AS Form",
   "PhysicalEmployement":"Physical Employement",
   "SignedDocuments" : "Signed Documents",
   "KYCPanForm":"KYC Pan Form",
    "KYCAddressForm":"KYC Address Form"   
}