{
    "crif": "http://syndication-crif-pan-verification:5000",
    "scorecard": "http://scorecard:5000",
    "lookup": "http://lookup-service:5000",
    "crif-pan": "http://syndication-crif-pan-verification:5000",
    "otp": "http://mobile-verification:5000",
    "company-db": "http://company-db:5000",
    "consent": "http://consent:5000",
    "rulesengine": "http://rulesengine:5209",
    "perfios": "http://syndication-perfios:5000",
    "offerengine": "http://application-processor:5000/application/submit",
    "application-processor": "http://application-processor:5000",
    "application": "http://application:5000",
    "eventhub": "http://eventhub:5000",
    "identity": "http://security-identity:5000",
    "crif-report": "http://syndication-crif-credit-report:5000",
    "hunter": "http://syndication-email-hunter:5000/verify-email/app/1/",
    "simulation": "http://simulation:5000",
    "verification-engine": "http://verification-engine:5000",
    "status-management": "http://status-management:5000",
    "application-filters": "http://application-filters:5000",
    "lendo": "http://syndication-lenddo:5000",
    "email-verification": "http://email-verification:5000",
    "data-attribute": "http://data-attributes:5000"
}