{
    "EmailEvents": [
        {
            "EventName": "ApplicationExpired",
            "EntityId": "{Data.ExpiredApplication.ApplicationNumber}",
            "EmailTemplate": {
                "TemplateName": "LeadExpiryNotification",
                "TemplateVersion": "1.0",
                "DataExtractionRule": {
                    "Name": "GetLeadExpiryNotificationData",
                    "Version": "1.0"
                }
            },
            "MobileTemplate": {
                "TemplateName": "CommonSMS",
                "TemplateVersion": "1.0",
                "DataExtractionRule": {
                    "Name": "ApplicationExpirySms",
                    "Version": "1.0"
                }
            }
        },
        {
            "EventName": "InActivityThresholdCrossed",
            "EntityId": "{Data.InActiveApplication.ApplicationNumber}",
            "EmailTemplate": {
                "TemplateName": "ApplicationInActiveNotification",
                "TemplateVersion": "1.0",
                "DataExtractionRule": {
                    "Name": "GetApplicationInActiveNotificationData",
                    "Version": "1.0"
                }
            },
            "MobileTemplate": {
                "TemplateName": "CommonSMS",
                "TemplateVersion": "1.0",
                "DataExtractionRule": {
                    "Name": "InActiveApplicationSms",
                    "Version": "1.0"
                }
            }
        },
        {
            "EventName": "FinalOfferSelected",
            "EntityId": "{Data.EntityId}",
            "EmailTemplate": {
                "TemplateName": "FinalOfferAcceptedNotification",
                "TemplateVersion": "1.0",
                "DataExtractionRule": {
                    "Name": "GetFinalOfferAcceptedNotificationData",
                    "Version": "1.0"
                }
            },
            "MobileTemplate": {
                "TemplateName": "CommonSMS",
                "TemplateVersion": "1.0",
                "DataExtractionRule": {
                    "Name": "FinalOfferAcceptedSms",
                    "Version": "1.0"
                }
            }
        },
        {
            "EventName": "ApplicationRejected",
            "EntityId": "{Data.EntityId}",
            "EmailTemplate": {
                "TemplateName": "ApplicationRejectionNotification",
                "TemplateVersion": "1.0",
                "DataExtractionRule": {
                    "Name": "GetApplicationRejectionNotificationData",
                    "Version": "1.0"
                }
            },
            "MobileTemplate": {
                "TemplateName": "CommonSMS",
                "TemplateVersion": "1.0",
                "DataExtractionRule": {
                    "Name": "ApplicationRejectionSms",
                    "Version": "1.0"
                }
            }
        },
        {
            "EventName": "NotifyPendingDocuments",
            "EntityId": "{Data.PendingDocApplication.ApplicationNumber}",
            "EmailTemplate": {
                "TemplateName": "PendingDocumentsNotification",
                "TemplateVersion": "1.0",
                "DataExtractionRule": {
                    "Name": "GetPendingDocumentsNotificationData",
                    "Version": "1.0"
                }
            },
            "MobileTemplate": {
                "TemplateName": "CommonSMS",
                "TemplateVersion": "1.0",
                "DataExtractionRule": {
                    "Name": "PendingDocumentsSms",
                    "Version": "1.0"
                }
            }
        },
        {
            "EventName": "FinalOfferSucceed",
            "EntityId": "{Data.FinalOffer.EntityId}",
            "EmailTemplate": {
                "TemplateName": "FinalOfferAcceptanceNotification",
                "TemplateVersion": "1.0",
                "DataExtractionRule": {
                    "Name": "GetFinalOfferAcceptanceNotificationData",
                    "Version": "1.0"
                }
            },
            "MobileTemplate": {
                "TemplateName": "CommonSMS",
                "TemplateVersion": "1.0",
                "DataExtractionRule": {
                    "Name": "FinalOfferGeneratedSms",
                    "Version": "1.0"
                }
            }
        },
        {
            "EventName": "InitialofferCompleted",
            "EntityId": "{Data.InitialOffer.EntityId}",
            "MobileTemplate": {
                "TemplateName": "CommonSMS",
                "TemplateVersion": "1.0",
                "DataExtractionRule": {
                    "Name": "InitialOfferInitiatedSms",
                    "Version": "1.0"
                }
            }
        },
        {
            "EventName": "ManualReviewNeeded",
            "EntityId": "{Data.ApplicationNumber}",
            "EmailTemplate": {
                "TemplateName": "ConfirmationEmail",
                "TemplateVersion": "1.0",
                "DataExtractionRule": {
                    "Name": "GetConfirmationEmailData",
                    "Version": "1.0"
                }
            },
            "MobileTemplate": {
                "TemplateName": "CommonSMS",
                "TemplateVersion": "1.0",
                "DataExtractionRule": {
                    "Name": "ConfirmSuccessfullApplicationSms",
                    "Version": "1.0"
                }
            }
        },
        {
            "EventName": "ApplicationStatusChanged",
            "EntityId": "{Data.EntityId}",
            "EmailTemplate": {
                "TemplateName": "EmailTemplateForBank",
                "TemplateVersion": "1.0",
                "DataExtractionRule": {
                    "Name": "GetUsersFromStatusFilterRoles",
                    "Version": "1.0"
                }
            }
        },
        {
            "EventName": "TagApplied",
            "EntityId": "{Data.ApplicationNumber}",
            "EmailTemplate": {
                "TemplateName": "EmailTemplateForBank",
                "TemplateVersion": "1.0",
                "DataExtractionRule": {
                    "Name": "GetUsersFromTagFilterRoles",
                    "Version": "1.0"
                }
            }
        },
        {
            "EventName": "TagRemoved",
            "EntityId": "{Data.ApplicationNumber}",
            "EmailTemplate": {
                "TemplateName": "EmailTemplateForSendBackToBank",
                "TemplateVersion": "1.0",
                "DataExtractionRule": {
                    "Name": "GetUsersFromUnTagFilterRoles",
                    "Version": "1.0"
                }
            }
        }
    ]
}