{
    "reApplyStatuseCodes": [
        "200.13",
        "200.14",
        "200.15",
        "200.16"
    ],
    "RestartApplyStatusCodes": [
        "200.14",
        "200.15"
    ],
    "statuses": {
        "ApplicationSubmitted": "200.02",
        "LeadCreated": "200.01",
        "InitialOfferGiven": "200.03",
        "InitialOfferSelected": "200.04",
        "NotInterested": "200.14",
        "Finaloffermade": "200.06",
        "FinalofferAccepted": "200.07",
        "Rejected": "200.16",
        "CEApproved": "200.08",
        "Approved": "200.11",
        "BankCreditReview": "200.10",
        "ManualReview": "200.05",
        "RBLFraud": "200.09",
        "Funded": "200.12"
    },
    "reApplyTimeFrame": "90",
    "employmentChangeStatus": [
        "200.02",
        "200.01",
        "200.03",
        "200.07",
        "200.05",
        "200.08"
    ],
    "expenseChangeStatus": [
        "200.02",
        "200.01"
    ],
    "updatePersonalDetails": [
        "200.02",
        "200.01"
    ],
    "primaryCreditBureau": "CIBIL",
    "secondaryCreditBureau": "CRIF",
    "bankChangeStatus": [
        "200.02",
        "200.01",
        "200.03",
        "200.04",
        "200.05",
        "200.06",
        "200.07",
        "200.08"
    ],
    "addressChangeStatus": [
        "200.02",
        "200.01",
        "200.05",
        "200.03",
        "200.07",
        "200.04",
        "200.08"
    ],
    "EnablePersonalEmailVerification": true,
    "EmailValidationProvider": "TowerData",
    "EnableEmail": true,
    "DefaultLoanTerm": 5,
    "DefaultPaymentFrequency": 5,
    "MinFinalOfferAmount": 50000,
    "MaxFinalOfferAmount": 750000,
    "DrfConfiguration": {
        "TemplateName": "DrfForm",
        "TemplateVersion": "1.0",
        "DocumentName": "DisbursalRequestForm.pdf",
        "Category": "disbursal",
        "Tags": [
            "Drf Generated"
        ]
    },
    "DpnConfiguration": {
        "TemplateName": "DpnForm",
        "TemplateVersion": "1.0",
        "DocumentName": "DemandPromissoryNote.pdf",
        "Category": "disbursal",
        "Tags": [
            "Drf Generated"
        ]
    },
    "EmailBlackList": [
        "support@",
        "care@",
        "admin@",
        "sales@",
        "webmaster@",
        "IT@",
        "HR@",
        "contact@",
        "help@",
        "info@",
        "enquiries@",
        "mail@",
        "hello@",
        "office@",
        "head@",
        "enquiry@",
        "reception@",
        "marketing@",
        "post@",
        "accounts@",
        "account@",
        "postmaster@",
        "general@",
        "design@",
        "mailbox@",
        "legal@",
        "service@",
        "reservations@",
        "information@",
        "secretary@",
        "pr@",
        "advice@",
        "studio@",
        "headoffice@",
        "bookings@",
        "jobs@",
        "career@",
        "careers@",
        "helpdesk@",
        "property@",
        "recruitment@",
        "recruit@",
        "employment@",
        "postbox@",
        "administrator@",
        "editor@",
        "enquire@",
        "all@",
        "services@",
        "customerservice@",
        "hire@",
        "print@",
        "events@",
        "adminoffice@",
        "business@",
        "finance@",
        "orders@",
        "news@",
        "solutions@",
        "partner@",
        "partners@",
        "team@",
        "ask@",
        "consult@",
        "inquiries@",
        "care@",
        "feedback@"
    ]
}