{
    "loanDuration": "6",
    "destination": "netbankingFetch",
    "apiVersion": "2.0",
    "loanAmount": "0",
    "useProxy": "True",
    "ProxyUrl": "http://tlsproxy:5000",
    "serviceUrls": {
        "startNetLinkingProcessUrl ": "https://www.perfios.com/KuberaVault/insights/start",
        "startTransactionUrl": "https://www.perfios.com/KuberaVault/insights/api/statement/start",
        "uploadStatementUrl": "https://www.perfios.com/KuberaVault/insights/api/statement/upload",
        "completeTransactionUrl": "https://www.perfios.com/KuberaVault/insights/api/statement/done",
        "transactionStatusUrl": "https://www.perfios.com/KuberaVault/insights/txnstatus",
        "retrieveReportsandStatementsUrl": "https://www.perfios.com/KuberaVault/insights/retrieve",
        "deletedataUrl": "https://www.perfios.com/KuberaVault/insights/delete",
        "requestReviewofAPerfiosTransactionUrl": "https://www.perfios.com/KuberaVault/insights/review",
        "listofsupportedInstitutionsUrl": "https://www.perfios.com/KuberaVault/insights/institutions"
    },
    "acceptancePolicy": "atLeastOneTransactionInRange",
    "privateKey": "-----BEGIN RSA PRIVATE KEY-----\r\n\r\n            MIIBOgIBAAJBAIk/YBItZo5OF3zb+lEjiMbrGGEKEThvvLb7L7R+pz6Ft3NVljHi\r\n\r\n            Th0/rp1vpntjcbBYuD250ABBgYZXL8ZL3A8CAwEAAQJAXqjwSPk5P7MKrhpGlknM\r\n\r\n            321sfhlkcSlX3lh2uaWVEiBC8EnrQbuUTFH/Z8DCPwg64jHrpj7ToC6fT9fyuL8S\r\n\r\n            6QIhAMOFW2IzBmhzDIR/MT6QSyGk/ZS4lQCfWq+VYS3iK7eVAiEAs7OMAOaNQJgo\r\n\r\n            3qKcwALSnfNH/EDjn3QCWontbIEZTBMCIFKKcujC57qijy9ETvK9kaozcAYf4m9v\r\n\r\n            1qX3Zx4qtA/9AiAoLld5xBOFhABvd7DRBlCN3N4Vu3SqLMhx8jFSd7NuXQIhAK5h\r\n\r\n            aMJVvxPr0TLgHGcIiDJw8bWOoA9ocvtXAOn5A6CE\r\n\r\n            -----END RSA PRIVATE KEY-----",
    "publickey": "-----BEGIN PUBLIC KEY-----\r\n\r\n            MFwwDQYJKoZIhvcNAQEBBQADSwAwSAJBAIk/YBItZo5OF3zb+lEjiMbrGGEKEThv\r\n\r\n            vLb7L7R+pz6Ft3NVljHiTh0/rp1vpntjcbBYuD250ABBgYZXL8ZL3A8CAwEAAQ==\r\n\r\n            -----END PUBLIC KEY-----",
    "loanType": "Personal",
    "vendorId": "creditExchange",
    "netLinkForm": "<HTML><form id='perfiosnetlinkform' style='display:none' action='https://www.perfios.com/KuberaVault/insights/start' method='POST'><input type='text' name='payload' value='##payload##' /><input type='text' name='signature' value='##signature##' /></form><script>document.getElementById('perfiosnetlinkform').submit();</script></HTML>"
}