{
    "scorecard": {
        "application": {
            "Product1": {
                "EligibilityCriteria": {
                    "Prequalification": [
                        {
                            "Name": "ScoreCardEligibilityRule",
                            "Sequence": 1,
                            "RequiredSources": [
                                "application"
                            ],
                            "Rule": {
                                "Name": "initialoffer_execute_eligibility_rules",
                                "Version": "1.0"
                            }
                        },
                        {
                            "Name": "CrifPanVerificationRule",
                            "Sequence": 1,
                            "RequiredSources": [
                                "crifPanReport"
                            ],
                            "Rule": {
                                "Name": "initialoffer_verify_pan",
                                "Version": "1.0"
                            }
                        },
                        {
                            "Name": "GeoRiskEligibility",
                            "Sequence": 1,
                            "RequiredSources": [
                                "geoRiskPinCode",
                                "application"
                            ],
                            "OptionalSources": [
                                "cibilReport",
                                "crifCreditReport"
                            ],
                            "Rule": {
                                "Name": "initialoffer_georiskclassification_eligibility",
                                "Version": "1.0"
                            }
                        },
                        {
                            "Name": "CreditEligibilityCheck",
                            "Sequence": 1,
                            "RequiredSources": [
                                "application"
                            ],
                            "OptionalSources": [
                                "cibilReport",
                                "crifCreditReport",
                                "crifPanReport"
                            ],
                            "Rule": {
                                "Name": "initialoffer_credit_eligibility",
                                "Version": "1.0"
                            }
                        }
                    ]
                },
                "ScoringCritiria": {
                    "ScoringRules": [
                        {
                            "Name": "FinalOfferScoreCalculation",
                            "Sequence": 1,
                            "RequiredSources": [
                                "application",
                                "companyCategoryReport"
                            ],
                            "OptionalSources": [
                                "cibilReport",
                                "crifCreditReport",
                                "clientScoreCard",
                                "perfiosReport",
                                "yodleeCashFlowReport",
                                "manualCashFlowReport",
                                "bankPreferenceData"
                            ],
                            "PreRequisiteRules": [
                                "CalculateInitialOffer",
                                "GeoRiskEligibility"
                            ],
                            "Rule": {
                                "Name": "final_offer_score_calculation_rule",
                                "Version": "1.0"
                            }
                        }
                    ]
                },
                "ManualReviewCritiria": {
                    "ManualReviewRules": [
                        {
                            "Name": "ScoringRule1",
                            "Sequence": 1,
                            "PreRequisiteRule": [
                                "Rule1",
                                "Rule"
                            ]
                        },
                        {
                            "Name": "ScoringRule2",
                            "Sequence": 1,
                            "PreRequisiteRule": [
                                "Rule1",
                                "Rule"
                            ]
                        }
                    ]
                },
                "OfferCritiria": {
                    "InitialOfferCalculation": [
                        {
                            "Name": "CalculateInitialOffer",
                            "PreRequisiteRules": [
                                "GeoRiskEligibility"
                            ],
                            "RequiredSources": [
                                "application",
                                "cibilReport"
                            ],
                            "OptionalSources": [
                                "cibilReport",
                                "crifCreditReport",
                                "companyCategoryReport"
                            ],
                            "Rule": {
                                "Name": "initialoffer_compute",
                                "Version": "1.0"
                            }
                        }
                    ],
                    "FinalOfferCalculation": [
                        {
                            "Name": "FinalOfferCalculation",
                            "PreRequisiteRules": [
                                "FinalOfferScoreCalculation"
                            ],
                            "RequiredSources": [
                                "application",
                                "companyCategoryReport"
                            ],
                            "OptionalSources": [
                                "cibilReport",
                                "crifCreditReport",
                                "perfiosReport",
                                "yodleeCashFlowReport",
                                "manualCashFlowReport",
                                "bankPreferenceData"
                            ],
                            "Rule": {
                                "Name": "final_offer_calculation_rule",
                                "Version": "1.0"
                            }
                        }
                    ]
                }
            }
        }
    }
}