{
    "statuses": [
        {
            "code": "200.09",
            "filter": "fraudreview",
            "Roles": [
                "Bank FCU Manager",
                "Bank FCU"
            ]
        },
        {
            "code": "200.10",
            "filter": "creditreview",
            "Roles": [
                "Bank Credit Manager",
                "Bank Credit"
            ]
        },
        {
            "code": "200.11",
            "filter": "funding",
            "Roles": [
                "Bank Operations Manager",
                "Bank Operations"
            ]
        },
        {
            "code": "200.12",
            "filter": "funded",
            "Roles": [
                "Bank Operations Manager",
                "Bank Operations"
            ]
        }
    ],
    "navigatorstatuses": [
        {
            "code": "200.01",
            "filter": "failedSub",
            "navigatorRoles": [
                "CEO",
                "Outsourced call centre",
                "IT Manager",
                "IT Executive"
            ]
        },
        {
            "code": "200.02",
            "filter": "intoffer",
            "navigatorRoles": [
                "CEO",
                "Errors Manager",
                "Error Handling",
                "IT Manager",
                "IT Executive"
            ]
        },
        {
            "code": "200.03",
            "filter": "intoffersel",
            "navigatorRoles": [
                "CEO",
                "Credit Operations Manager",
                "Credit Operations",
                "IT Manager",
                "IT Executive"
            ]
        },
        {
            "code": "200.04",
            "filter": "offergen",
            "navigatorRoles": [
                "CEO",
                "Credit Operations Manager",
                "Credit Operations",
                "Credit Manager",
                "Credit",
                "IT Manager",
                "IT Executive"
            ]
        },
        {
            "code": "200.05",
            "filter": "review",
            "navigatorRoles": [
                "CEO",
                "Credit Manager",
                "Credit",
                "IT Manager",
                "IT Executive"
            ]
        },
        {
            "code": "200.06",
            "filter": "offeracceptance",
            "navigatorRoles": [
                "CEO",
                "Credit Sales Manager",
                "Credit Sales",
                "IT Manager",
                "IT Executive"
            ]
        },
        {
            "code": "200.07",
            "filter": "approval",
            "navigatorRoles": [
                "CEO",
                "Call-Centre Manager",
                "Outsourced call centre",
                "Fulfilment Manager",
                "Fulfilment",
                "IT Manager",
                "IT Executive"
            ]
        },
        {
            "code": "200.08",
            "filter": "qa",
            "navigatorRoles": [
                "CEO",
                "QA Manager",
                "Quality Assurance",
                "IT Manager",
                "IT Executive"
            ]
        },
        {
            "code": "200.09",
            "filter": "fraudreview",
            "navigatorRoles": [
                "CEO",
                "RBL Relationship Manager",
                "Bank Tracking and Query Resolution",
                "IT Manager",
                "IT Executive",
                "Bank CEO",
                "Bank FCU Manager",
                "Bank FCU"
            ]
        },
        {
            "code": "200.10",
            "filter": "creditreview",
            "navigatorRoles": [
                "CEO",
                "RBL Relationship Manager",
                "Bank Tracking and Query Resolution",
                "IT Manager",
                "IT Executive",
                "Bank CEO",
                "Bank Credit Manager",
                "Bank Credit"
            ]
        },
        {
            "code": "200.11",
            "filter": "funding",
            "navigatorRoles": [
                "CEO",
                "RBL Relationship Manager",
                "Bank Tracking and Query Resolution",
                "IT Manager",
                "IT Executive",
                "Bank CEO",
                "Bank Operations Manager",
                "Bank Operations"
            ]
        },
        {
            "code": "200.12",
            "filter": "funded",
            "navigatorRoles": [
                "CEO",
                "RBL Relationship Manager",
                "Bank Tracking and Query Resolution",
                "IT Manager",
                "IT Executive",
                "Bank CEO",
                "Bank Operations Manager",
                "Bank Operations"
            ]
        },
        {
            "code": "200.13",
            "filter": "cancelled",
            "navigatorRoles": []
        },
        {
            "code": "200.14",
            "filter": "notInterested",
            "navigatorRoles": [
                "CEO",
                "Credit Operations Manager",
                "Credit Operations",
                "Credit Manager",
                "Credit",
                "Customer Support Manager",
                "Customer support",
                "IT Manager",
                "IT Executive"
            ]
        },
        {
            "code": "200.15",
            "filter": "expired",
            "navigatorRoles": [
                "CEO",
                "Credit Manager",
                "Credit",
                "Customer Support Manager",
                "Customer support",
                "IT Manager",
                "IT Executive"
            ]
        },
        {
            "code": "200.16",
            "filter": "rejected",
            "navigatorRoles": [
                "CEO",
                "Credit Manager",
                "Credit",
                "IT Manager",
                "IT Executive"
            ]
        }
    ],
    "Addtags": [
        {
            "tag": "FCU Sampled",
            "filter": "fcusampled",
            "Roles": [
                "Bank FCU Manager",
                "Bank FCU"
            ]
        }
    ],
    "Removetags": [
        {
            "tag": "RBL Followup",
            "filter": "referredtoce",
            "Roles": [
                "Bank CEO",
                "Bank Credit Manager",
                "Bank Credit",
                "Bank Operations Manager",
                "Bank Operations",
                "Bank FCU Manager",
                "Bank FCU"
            ]
        }
    ]
}