{
    "facts": {
        "application": [
            {
                "Name": "MobileVerification",
                "MaxRetryAttempts": 1,
                "Methods": [
                    {
                        "Name": "MobileSms",
                        "Sources": [
                            {
                                "Name": "MobileSms",
                                "Type": "Automatic",
                                "Settings": {},
                                "SaveToDataAttribute": "MobileSmsData"
                            }
                        ]
                    }
                ]
            },
            {
                "Name": "PanVerification",
                "MaxRetryAttempts": 1,
                "Methods": [
                    {
                        "Name": "CrifPanSyndication",
                        "Sources": [
                            {
                                "Type": "Syndication",
                                "Name": "CrifPanVerifcation",
                                "Settings": {},
                                "RequiredDataAttributes": [
                                    "crifPanReport"
                                ],
                                "SaveToDataAttribute": "CrifPanVerifcationData"
                            }
                        ],
                        "VerificationRule": {
                            "Name": "verification_rule_pan",
                            "Version": "1.0"
                        }
                    },
                    {
                        "Name": "CibilPanSyndication",
                        "Sources": [
                            {
                                "Type": "Syndication",
                                "Name": "CibilSyndicationReport",
                                "Settings": {},
                                "RequiredDataAttributes": [
                                    "cibilReport"
                                ],
                                "SaveToDataAttribute": "CibilPanSyndicationData"
                            }
                        ],
                        "VerificationRule": {
                            "Name": "verification_rule_cibilpanverificationrule",
                            "Version": "1.0"
                        }
                    },
                    {
                        "Name": "PanManualVerification",
                        "Sources": [
                            {
                                "Type": "Form",
                                "Name": "PanManualVerification",
                                "Settings": {},
                                "SaveToDataAttribute": "PanManualVerificationData"
                            }
                        ],
                        "VerificationRule": {
                            "Name": "verification_rule_pan_manual_verification",
                            "Version": "1.0"
                        }
                    }
                ]
            },
            {
                "Name": "BankVerification",
                "MaxRetryAttempts": 1,
                "Methods": [
                    {
                        "Name": "Perfios",
                        "Sources": [
                            {
                                "Type": "Syndication",
                                "Name": "Perfios",
                                "Settings": {},
                                "RequiredDataAttributes": [
                                    "perfiosReport",
                                    "application"
                                ],
                                "SaveToDataAttribute": "PerfiosData"
                            }
                        ],
                        "VerificationRule": {
                            "Name": "verification_rule_perfiosaccountnumber",
                            "Version": "1.0"
                        }
                    },
                    {
                        "Name": "BankManual",
                        "Sources": [
                            {
                                "Type": "Form",
                                "Name": "BankStatementForm",
                                "Settings": {
                                    "DocumentRequired": "BankStatement",
                                    "Category": "bankstatement"
                                },
                                "RequiredDataAttributes": [
                                    "application"
                                ],
                                "SaveToDataAttribute": "BankManualData"
                            }
                        ],
                        "VerificationRule": {
                            "Name": "verification_rule_bankcashflowmanual",
                            "Version": "1.0"
                        }
                    },
                    {
                        "Name": "PerfiosNetBanking",
                        "Sources": [
                            {
                                "Name": "PerfiosNetBanking",
                                "Type": "Automatic",
                                "Settings": {},
                                "SaveToDataAttribute": "PerfiosNetBankingData"
                            }
                        ]
                    }
                ]
            },
            {
                "Name": "EmailVerifyForWork",
                "MaxRetryAttempts": 1,
                "Methods": [
                    {
                        "Name": "WorkEmailVerification",
                        "Sources": [
                            {
                                "Type": "Syndication",
                                "Name": "EmailVerification",
                                "Settings": {},
                                "RequiredDataAttributes": [
                                    "application"
                                ],
                                "SaveToDataAttribute": "WorkEmailVerificationData"
                            }
                        ],
                        "VerificationRule": {
                            "Name": "verification_rule_workemail",
                            "Version": "1.0"
                        }
                    }
                ]
            },
            {
                "Name": "EmailVerifyForPersonal",
                "MaxRetryAttempts": 1,
                "Methods": [
                    {
                        "Name": "AutomaticPersonalEmail",
                        "Sources": [
                            {
                                "Name": "PersonalEmail",
                                "Type": "Automatic",
                                "Settings": {},
                                "SaveToDataAttribute": "AutomaticPersonalEmailData"
                            }
                        ]
                    },
                    {
                        "Name": "PersonalEmailVerification",
                        "Sources": [
                            {
                                "Type": "Syndication",
                                "Name": "EmailVerification",
                                "Settings": {},
                                "RequiredDataAttributes": [
                                    "application"
                                ],
                                "SaveToDataAttribute": "PersonalEmailVerificationData"
                            }
                        ],
                        "VerificationRule": {
                            "Name": "verification_rule_personalemail",
                            "Version": "1.0"
                        }
                    }
                ]
            },
            {
                "Name": "SocialVerification",
                "MaxRetryAttempts": 1,
                "Methods": [
                    {
                        "Name": "Lenddo",
                        "Sources": [
                            {
                                "Type": "Syndication",
                                "Name": "Lenddo",
                                "Settings": {},
                                "RequiredDataAttributes": [
                                    "clientScoreCard"
                                ],
                                "SaveToDataAttribute": "LenddoData"
                            }
                        ],
                        "VerificationRule": {
                            "Name": "verification_rule_lendo",
                            "Version": "1.0"
                        }
                    }
                ]
            },
            {
                "Name": "LocationVerification",
                "MaxRetryAttempts": 1,
                "Methods": [
                    {
                        "Name": "Zumigo",
                        "Sources": [
                            {
                                "Type": "Syndication",
                                "Name": "Zumigo",
                                "Settings": {},
                                "RequiredDataAttributes": [
                                    "zumigoReport"
                                ],
                                "SaveToDataAttribute": "ZumigoData"
                            }
                        ],
                        "VerificationRule": {
                            "Name": "verification_rule_locationzumigo",
                            "Version": "1.0"
                        }
                    },
                    {
                        "Name": "PhysicalManual",
                        "Sources": [
                            {
                                "Type": "Form",
                                "Name": "PhysicalVerification",
                                "Settings": {},
                                "SaveToDataAttribute": "PhysicalManualData"
                            }
                        ],
                        "VerificationRule": {
                            "Name": "verification_rule_physicalmanual",
                            "Version": "1.0"
                        }
                    },
                    {
                        "Name": "CibilAddressSyndication",
                        "Sources": [
                            {
                                "Type": "Syndication",
                                "Name": "CibilSyndicationReport",
                                "Settings": {},
                                "RequiredDataAttributes": [
                                    "cibilReport"
                                ],
                                "SaveToDataAttribute": "CibilAddressSyndicationData"
                            }
                        ],
                        "VerificationRule": {
                            "Name": "verification_rule_cibiladdress",
                            "Version": "1.0"
                        }
                    }
                ]
            },
            {
                "Name": "EmploymentVerification",
                "MaxRetryAttempts": 1,
                "Methods": [
                    {
                        "Name": "EmploymentVerification",
                        "Sources": [
                            {
                                "Type": "Syndication",
                                "Name": "EmailVerification",
                                "Settings": {},
                                "RequiredDataAttributes": [
                                    "application",
                                    "WorkEmailVerificationData",
                                    "domainSearched"
                                ],
                                "SaveToDataAttribute": "EmploymentVerificationData"
                            }
                        ],
                        "VerificationRule": {
                            "Name": "verification_rule_workemailanddomainmatch",
                            "Version": "1.0"
                        }
                    },
                    {
                        "Name": "PhysicalEmploymentVerification",
                        "Sources": [
                            {
                                "Type": "Form",
                                "Name": "PhysicalEmployement",
                                "Settings": {},
                                "SaveToDataAttribute": "PhysicalEmploymentVerificationData"
                            }
                        ],
                        "VerificationRule": {
                            "Name": "verification_rule_physicalemployment",
                            "Version": "1.0"
                        }
                    }
                ]
            },
            {
                "Name": "SignedDocumentVerification",
                "MaxRetryAttempts": 1,
                "Methods": [
                    {
                        "Name": "SignedDocuments",
                        "Sources": [
                            {
                                "Type": "Form",
                                "Name": "SignedDocuments",
                                "Settings": {
                                    "DocumentRequired": "SignedDocuments",
                                    "Category": "signeddocument"
                                },
                                "SaveToDataAttribute": "SignedDocumentsData"
                            }
                        ],
                        "VerificationRule": {
                            "Name": "verification_rule_signeddocumentmanul",
                            "Version": "1.0"
                        }
                    }
                ]
            },
            {
                "Name": "KYC-PAN",
                "MaxRetryAttempts": 1,
                "Methods": [
                    {
                        "Name": "KYCPan",
                        "Sources": [
                            {
                                "Type": "Form",
                                "Name": "KYCPanForm",
                                "Settings": {
                                    "DocumentRequired": "PANCard",
                                    "Category": "pancard"
                                },
                                "SaveToDataAttribute": "KYCPanData"
                            }
                        ],
                        "VerificationRule": {
                            "Name": "verification_rule_kycpan",
                            "Version": "1.0"
                        }
                    }
                ]
            },
            {
                "Name": "KYC-Address",
                "MaxRetryAttempts": 1,
                "Methods": [
                    {
                        "Name": "KYCAddress",
                        "Sources": [
                            {
                                "Type": "Form",
                                "Name": "KYCAddressForm",
                                "Settings": {
                                    "DocumentRequired": "KYCAddress",
                                    "Category": "kycaddress"
                                },
                                "SaveToDataAttribute": "KYCAddressData"
                            }
                        ],
                        "VerificationRule": {
                            "Name": "verification_rule_kycaddress",
                            "Version": "1.0"
                        }
                    }
                ]
            }
        ]
    },
    "events": [
        {
            "Name": "ApplicationCrifPanReportDataAttributeSet",
            "SyndicationName": "CrifPanVerifcation",
            "EntityId": "{Data.Attribute.EntityId}",
            "Response": "{Data.Attribute.Value}",
            "EntityType": "{Data.Attribute.EntityType}",
            "ReferenceNumber": "{Data.Attribute.Value.referenceNumber}"
        },
        {
            "Name": "ApplicationClientScoreCardDataAttributeSet",
            "SyndicationName": "Lenddo",
            "EntityId": "{Data.Attribute.EntityId}",
            "Response": "{Data.Attribute.Value}",
            "EntityType": "{Data.Attribute.EntityType}",
            "ReferenceNumber": "{Data.Attribute.Value.referenceNumber}"
        },
        {
            "Name": "EmailVerified",
            "SyndicationName": "EmailVerification",
            "EntityId": "{Data.EntityId}",
            "Response": "{Data.Response}",
            "EntityType": "{Data.EntityType}",
            "ReferenceNumber": "{Data.ReferenceNumber}"
        },
        {
            "Name": "ApplicationZumigoReportDataAttributeSet",
            "SyndicationName": "Zumigo",
            "EntityId": "{Data.Attribute.EntityId}",
            "Response": "{Data.Attribute.Value}",
            "EntityType": "{Data.Attribute.EntityType}",
            "ReferenceNumber": "{Data.Attribute.Value.referenceNumber}"
        },
        {
            "Name": "ApplicationPerfiosReportDataAttributeSet",
            "SyndicationName": "Perfios",
            "EntityId": "{Data.Attribute.EntityId}",
            "Response": "{Data.Attribute.Value}",
            "EntityType": "{Data.Attribute.EntityType}",
            "ReferenceNumber": "{Data.Attribute.Value.referenceNumber}"
        },
        {
            "Name": "ApplicationCibilReportDataAttributeSet",
            "SyndicationName": "CibilSyndicationReport",
            "EntityId": "{Data.Attribute.EntityId}",
            "Response": "{Data.Attribute.Value}",
            "EntityType": "{Data.Attribute.EntityType}",
            "ReferenceNumber": "{Data.Attribute.Value.referenceNumber}"
        }
    ]
}