{
    "apiBaseUrl": "http://pro.viewdns.info",
    "whoisUrl": "whois",
    "apiOutputType": "json",
    "apiKey": "7eb568767fd1afa11296d82cd7becedf5593c4da",
    "reverseWhoisUrl": "reversewhois",
    "emailValidationProvider": ""
}