{
    "FastLink": {
        "FastLinkAppId": "10003600",
        "FastLinkLaunchForm": "<form id='fastlinkForm' style='display:none' action='##FastLinkBaseUrl##' method='POST'><input type='text' name='app' value='##AppId##' /><input type='text' name='rsession' value='##UserSessionToken##' /><input type='text' name='token'  value='##FastlinkAccessToken##' /><input type='text' name='redirectReq' value='##IsRedirect##'/><input type='text' name='extraParams' value='##ExtraParams##' /></form><script>document.getElementById('fastlinkForm').submit();</script>",
        "FastLinkFlow": "0",
        "BankSearchKeyWord": "",
        "SiteId": "",
        "CallBackUrl": ""
    },
    "Cobrand": {
        "LoginName": "CreditExchange",
        "Password": "Yodlee@123",
        "Locale": "en_US"
    },
    "User": {
        "LoginName": "creditexchangeysl",
        "Password": "Sigma@123",
        "Locale": "en_US"
    },
    "UserCredentialsInstanceType": "com.yodlee.ext.login.PasswordCredentials",
    "UserProfileInstanceType": "com.yodlee.core.usermanagement.UserProfile",
    "PreferredCurrency": "PREFERRED_CURRENCY~USD",
    "PreferredDateFormate": "PREFERRED_DATE_FORMAT~MM/dd/yyyy",
    "RestUrls": {
        "BaseRestUrl": "https://yieapstage.api.yodlee.com/ysl/private-CreditExchange/v1",
        "BaseItemSummariesUrl": "https://yieap.stage.yodleeinteractive.com/services/srest/private-CreditExchange/v1.0",
        "BaseFetchReportUrl": "https://yieap.stage.yodleeinteractive.com/services/srest/private-CreditExchange/v1.0",
        "FastLinkUrl": "https://yieapnode.stage.yodleeinteractive.com/authenticate/private-CreditExchange/?channelAppName=yieap",
        "CobrandLogin": "/cobrand/login",
        "RegisterUser": "/user/register",
        "LoginUser": "/user/login",
        "SearchBank": "/providers?name={0}",
        "GetBankLoginForm": "/providers/{0}",
        "PostBankLoginForm": "/providers/providerAccounts?providerId={0}",
        "UpdateBankLoginForm": "/providers/providerAccounts?providerAccountIds={0}",
        "GetMfaDetails": "/providers/providerAccounts/{0}",
        "PostMfaDetails": "/providers/providerAccounts?providerAccountIds={0}",
        "RefreshDetails": "/refresh/{0}",
        "StartRefreshDetails": "/jsonsdk/Refresh/startSiteRefresh",
        "ItemSummaries": "/jsonsdk/DataService/getItemSummariesForSite",
        "FetchReport": "/accountanalysis/fetchReport",
        "AccessToken": "/user/accessTokens",
        "GetUserAccounts": "/accounts",
        "RemoveSiteAccount": "/jsonsdk/SiteAccountManagement/removeSiteAccount",
        "SiteAccountId": ""
    }
}