var resultSet = db.getCollection('application').aggregate([
	{	
        $match : { $and : [ {"ApplicationDate.Time.DateTime" : { $gt : ISODate("2017-11-03 04:30:00.000Z") }},
			    {"ApplicationDate.Time.DateTime" : { $lt : ISODate("2017-11-07 04:00:00.000Z") }},
			    {"Source.TrackingCode" : {$nin : ["BorrowerPortal",null]}}
                          ] 
        }
    },
		{
			$project : {            
				"Application Number" : "$ApplicationNumber",
				"Tracking Code" : "$Source.TrackingCode",
				"Tracking Code Medium"  :"$Source.TrackingCodeMedium"
				"_id": 0
			 }
		}
 ]).toArray();
if(resultSet.length > 0) {printjson(resultSet);}



var result = db.getCollection('application-filters').aggregate([
	{
		 $match : {"ApplicationNumber" : {$in : [ 
		"0105139","0105140","0105141","0105145","0105146","0105150","0105152","0105153","0105154","0105155","0105156","0105157","0105158","0105161","0105163","0105164","0105165","0105166","0105167","0105170","0105171","0105172","0105174","0105177","0105178","0105181","0105182","0105184","0105186","0105187","0105189","0105190","0105192","0105194","0105195","0105196","0105197","0105198","0105199","0105200","0105201","0105202","0105203","0105206","0105207","0105208","0105209","0105211","0105212","0105214","0105216","0105218","0105219","0105220","0105221","0105224","0105225","0105226","0105227","0105229","0105231","0105232","0105234","0105236","0105238","0105239","0105240","0105243","0105244","0105245","0105246","0105247","0105248","0105250","0105251","0105254","0105255","0105256","0105257","0105258","0105259","0105260","0105261","0105262","0105263","0105264","0105265","0105267","0105268","0105269","0105272","0105273","0105274","0105277","0105278","0105280","0105281","0105282","0105283","0105284","0105286","0105287","0105288","0105291","0105292","0105294","0105298","0105299","0105305","0105307","0105308","0105309","0105311","0105312","0105315","0105316","0105317","0105318","0105319","0105320","0105321","0105323","0105324","0105328","0105329","0105330","0105331","0105332","0105339","0105340","0105341","0105343","0105344","0105345","0105346","0105348","0105349","0105350","0105351","0105353","0105354","0105356","0105360","0105362","0105364","0105365","0105366","0105367","0105369","0105370","0105371","0105372","0105373","0105374","0105375","0105376","0105380","0105381","0105385","0105386","0105387","0105388","0105389","0105390","0105391","0105392","0105393","0105395","0105397","0105398","0105399","0105400","0105403","0105405","0105406","0105409","0105414","0105416","0105424","0105425","0105426","0105430","0105431","0105432","0105433","0105434","0105435","0105436","0105437","0105438","0105439","0105440","0105441","0105442","0105443","0105444","0105446","0105450","0105451","0105452","0105454","0105455","0105457","0105459","0105460","0105462","0105464","0105465","0105466","0105467","0105471","0105472","0105473","0105474","0105477","0105478","0105479","0105480","0105481","0105482","0105483","0105484","0105486","0105487","0105489","0105491","0105492","0105493","0105495","0105497","0105498","0105499","0105500","0105502","0105505","0105508","0105510","0105511","0105512","0105513","0105516","0105517","0105519","0105521","0105523","0105524","0105525","0105527","0105528","0105529","0105530","0105531","0105532","0105533","0105535","0105537","0105538","0105540","0105541","0105543","0105544","0105547","0105548","0105549","0105550","0105553","0105554","0105556","0105557","0105558","0105559","0105560","0105564","0105566","0105567","0105568","0105569","0105570","0105571","0105572","0105574","0105575","0105577","0105579","0105580","0105581","0105584","0105588","0105589","0105590","0105591","0105592","0105593","0105598","0105599","0105600","0105601","0105602","0105604","0105605","0105606","0105608","0105609","0105610","0105611","0105612","0105617","0105618","0105619","0105620","0105621","0105624","0105627","0105628","0105630","0105631","0105632","0105633","0105635","0105636","0105639","0105645","0105646","0105647","0105649","0105650","0105652","0105653","0105655","0105657","0105659","0105661","0105663","0105665","0105666","0105667","0105669","0105671","0105672","0105675","0105676","0105677","0105678","0105679","0105680","0105682","0105683","0105684","0105685","0105686","0105687","0105691","0105693","0105696","0105697","0105698","0105703","0105704","0105706","0105707","0105709","0105710","0105711","0105715","0105716","0105717","0105720","0105721","0105722","0105725","0105726","0105727","0105728","0105731","0105733","0105735","0105739","0105740","0105742","0105746","0105747","0105749","0105750","0105751","0105752","0105753","0105754","0105755","0105756","0105757","0105758","0105759","0105761","0105763","0105764","0105767","0105768","0105769","0105770","0105773","0105774","0105775","0105776","0105777","0105778","0105779","0105780","0105781","0105782","0105786","0105787","0105788","0105789","0105790","0105791","0105792","0105793","0105794","0105796","0105797","0105800","0105801","0105803","0105805","0105806","0105808","0105809","0105810","0105811","0105812","0105814","0105817","0105821","0105822","0105823","0105824","0105825","0105831","0105832","0105833","0105834","0105835","0105836","0105837","0105838","0105839","0105840","0105841","0105844","0105845","0105847","0105849","0105852","0105854","0105856","0105857","0105858","0105859","0105860","0105861","0105863","0105864","0105865","0105866","0105869","0105870","0105872","0105874","0105875","0105877","0105878","0105879","0105881","0105882","0105884","0105885","0105886","0105887","0105888","0105889","0105890","0105891","0105892","0105893","0105897","0105898","0105900","0105902","0105904","0105907","0105910","0105912","0105913","0105916","0105917","0105920","0105921","0105922","0105923","0105924","0105925","0105927","0105928","0105929","0105932","0105935","0105936","0105937","0105938","0105939","0105940","0105941","0105943","0105944","0105947","0105948","0105949","0105950","0105951","0105952","0105954","0105955","0105957","0105958","0105959","0105961","0105962","0105964","0105966","0105967","0105968","0105969","0105970","0105971","0105973","0105974","0105975","0105977","0105978","0105979","0105980","0105981","0105984","0105985","0105986","0105988","0105991","0105993","0105997","0105998","0105999","0106000","0106003","0106004","0106008","0106009","0106012","0106013","0106015","0106017","0106020","0106021","0106023","0106025","0106029","0106030","0106034","0106035","0106037","0106040","0106041","0106042","0106043","0106044","0106045","0106048","0106049","0106051","0106052","0106053","0106055","0106056","0106057","0106059","0106060","0106063","0106065","0106066","0106067","0106069","0106071","0106073","0106074","0106076","0106078","0106079","0106080","0106081","0106083","0106087","0106088","0106090","0106092","0106093","0106094","0106095","0106096","0106099","0106100","0106101","0106102","0106103","0106104","0106105","0106106","0106109","0106111","0106113","0106114","0106115","0106116","0106119","0106121","0106123","0106124","0106126","0106127","0106129","0106130","0106132","0106133","0106134","0106135","0106136","0106139","0106140","0106141","0106142","0106143","0106144","0106145","0106146","0106148","0106149","0106150","0106152","0106154","0106156","0106159","0106162","0106164","0106165","0106166","0106169","0106171","0106172","0106173","0106174","0106175","0106177","0106178","0106179","0106180","0106181","0106183","0106184","0106186","0106187","0106188","0106189","0106193","0106194","0106195","0106197","0106198","0106199","0106201","0106202","0106203","0106205","0106206","0106208","0106209","0106211","0106212","0106213","0106216","0106217","0106219","0106220","0106222","0106223","0106224","0106227","0106228","0106229","0106231","0106232","0106237","0106238","0106240","0106241","0106242","0106243","0106244","0106245","0106249","0106252","0106253","0106254","0106255","0106256","0106257","0106259","0106261","0106262","0106263","0106265","0106266","0106267","0106268","0106270","0106272","0106273","0106274","0106275","0106277","0106281","0106282","0106283","0106285","0106286","0106289","0106290","0106291","0106293","0106294","0106299","0106300","0106301","0106302","0106304","0106305","0106306","0106307","0106308","0106310","0106312","0106313","0106314","0106315","0106317","0106318","0106319","0106320","0106325","0106326","0106327","0106329","0106332","0106334","0106335","0106337","0106338","0106339","0106341","0106342","0106345","0106346","0106349","0106350","0106352","0106353","0106354","0106355","0106360","0106361","0106363","0106364","0106366","0106368","0106373","0106376","0106378","0106381","0106382","0106383","0106384","0106385","0106386","0106388","0106389","0106390","0106391","0106394","0106395","0106396","0106397","0106400","0106401","0106404","0106405","0106407","0106408","0106409","0106410","0106413","0106414","0106416","0106418","0106419","0106420","0106422","0106424","0106425","0106427","0106429","0106430","0106432","0106434","0106435","0106436","0106440","0106443","0106444","0106446","0106450","0106452","0106453","0106455","0106456","0106459","0106462","0106463","0106464","0106465","0106466","0106467","0106469","0106472","0106474","0106477","0106480","0106481","0106482","0106483","0106484","0106485","0106486","0106487","0106488","0106491","0106494","0106496","0106497","0106498","0106499","0106501","0106502","0106503","0106505","0106506","0106507","0106513","0106514","0106517","0106518","0106519","0106521","0106523","0106524","0106525","0106526","0106527","0106528","0106531","0106532","0106533","0106534","0106536","0106537","0106538","0106540","0106541","0106542","0106544","0106545","0106546","0106547","0106548","0106550","0106551","0106552","0106555","0106556","0106562","0106563","0106566","0106568","0106569","0106571","0106572","0106574","0106575","0106577","0106578","0106579","0106580","0106581","0106582","0106583","0106586","0106587","0106588","0106592","0106594","0106595","0106596","0106597","0106598","0106599","0106601","0106602","0106607","0106608","0106610","0106611","0106614","0106615","0106617","0106622","0106623","0106624","0106627","0106628","0106629","0106630","0106631","0106632","0106633","0106634","0106635","0106637","0106638","0106640","0106641","0106642","0106644","0106646","0106647","0106648","0106656","0106657","0106658","0106660","0106665","0106666","0106667","0106668","0106670","0106672","0106674","0106676","0106678","0106679","0106680","0106682","0106683","0106685","0106687","0106688","0106689","0106690","0106692","0106693","0106695","0106696","0106697","0106698","0106702","0106703","0106704","0106705","0106706","0106707","0106710","0106712","0106715","0106717","0106718","0106719","0106720","0106721","0106722","0106725","0106726","0106727","0106728","0106729","0106730","0106732","0106737","0106738","0106739","0106740","0106741","0106746","0106749","0106751","0106752","0106754","0106756","0106757","0106758","0106759","0106761","0106763","0106764","0106765","0106766","0106767","0106768","0106771","0106772","0106774","0106777","0106779","0106780","0106781","0106782","0106783","0106786","0106787","0106790","0106791","0106792","0106793","0106794","0106798","0106800","0106801","0106802","0106803","0106804","0106805","0106809","0106814","0106815","0106816","0106818","0106820","0106821","0106823","0106824","0106825","0106826","0106829","0106835","0106837","0106838","0106839","0106842","0106844","0106846","0106847","0106849","0106851","0106852","0106853","0106854","0106855","0106856","0106857","0106858","0106859","0106860","0106861","0106862","0106863","0106864","0106865","0106866","0106869","0106871","0106872","0106873","0106874","0106875","0106876","0106877","0106878","0106879","0106884","0106885","0106887","0106888","0106889","0106890","0106891","0106893","0106894","0106895","0106896","0106897","0106899","0106900","0106902","0106904","0106905","0106907","0106908","0106910","0106911","0106912","0106913","0106915","0106916","0106917","0106918","0106919","0106920","0106921","0106922","0106923","0106924","0106925","0106926","0106927","0106929","0106930","0106931","0106932","0106933","0106935","0106936","0106937","0106939","0106940","0106943","0106944","0106945","0106946","0106947","0106948","0106954","0106956","0106957","0106958","0106959","0106960","0106961","0106962","0106963","0106964","0106965","0106966","0106967","0106969","0106970","0106973","0106975","0106976","0106978","0106981","0106982","0106983","0106984","0106988","0106989","0106991","0106992","0106999","0107000","0107002","0107004","0107005","0107007","0107008","0107011","0107014","0107016","0107017","0107019","0107021","0107022","0107023","0107024","0107025","0107027","0107028","0107032","0107033","0107034","0107035","0107037","0107041","0107044","0107045","0107046","0107047","0107050","0107052","0107054","0107055","0107058","0107059","0107063","0107067","0107071","0107072","0107079","0107082","0107083","0107085","0107086","0107089","0107091","0107092","0107093","0107097","0107099","0107103","0107106","0107109","0107110","0107113","0107114","0107116","0107117","0107120","0107121","0107122","0107124","0107125","0107126","0107128","0107132","0107142","0107143","0107144","0107147","0107148","0107150","0107153","0107155","0107157","0107160","0107162","0107164","0107167","0107168","0107169","0107170","0107171","0107172","0107173","0107174","0107175","0107177","0107178","0107180","0107182","0107185","0107194","0107195","0107197","0107198","0107202","0107203","0107204","0107205","0107207","0107208","0107209","0107213","0107214","0107216","0107217","0107218","0107220","0107230","0107235","0107238","0107242","0107243","0107244","0107246","0107248","0107251","0107252","0107254","0107259","0107263","0107265","0107267","0107273","0107275","0107289","0107294","0107301","0107306","0107329","0107341","0107355","0107373","0107376","0107377","0107390","0107391","0107392","0107393","0107394","0107395","0107397","0107399","0107401","0107403","0107405","0107408","0107410","0107411","0107412","0107415","0107416","0107417","0107419","0107422","0107423","0107424","0107425","0107426","0107427","0107428","0107429","0107430","0107431","0107432","0107433","0107434","0107435","0107437","0107438","0107440","0107442","0107443","0107444","0107445","0107446","0107447","0107449","0107452","0107453","0107454","0107455","0107458","0107459","0107461","0107462","0107466","0107467","0107468","0107469","0107471","0107473","0107474","0107476","0107477","0107478","0107480","0107481","0107482","0107484","0107485","0107486","0107487","0107488","0107490","0107491","0107492","0107494","0107495","0107496","0107497","0107499","0107500","0107501","0107505","0107507","0107509","0107510","0107511","0107512","0107513"

]}}              
	},
    {
        $project : { 
			"Application Number" : "$ApplicationNumber",
			"Application"  :"$Submitted.DateTime"
            "Loan Amount" : "$AmountRequested",
			"Initial offer Amount" : "$InitialOfferAmount",
			"Final Offer Amount" : "$FinalOfferAmount",
			"Status" : "$StatusName",
			"_id": 0
         }
    }	
]).toArray();
if(result.length > 0) {printjson(result);}

