var result = db.getCollection('status-management-history').aggregate([
    {
        $match : {$and : [ {"ActivatedBy"  :"anoop1"}, {"Status" : "200.16"}]}
    },
    {
        $project  : {
                "ApplicationNumber" : "$EntityId",
                "Date" : "$ActiveOn.Hour",
                "_id" : 0
            }
    }
]).toArray();
    printjson(result);
	
	
	
	
	
	