{
  "name": "LoanApplicationForm",
  "title": "Loan Application Form",
  "format": "Html",
  "body": "{{body}}",
  "version": "1.0",
  "properties": {
    "pdfSettings":{
    "pageSize": "A4",
    "pageWidth": "21cm",
    "pageHeight": "29.7cm",
    "orientation": "portrait",
    "dpi": 300,
    "imageQuality": 90,
    "marginTop": "10",
    "marginBottom": "10",
    "marginLeft": "10",
    "marginRight": "10"
   }
  },
  "id": null
}